1;agent0;35.09886;0;47.1649;LookingFor;cell34-46
2;agent0;34.87425;0;46.84132;LookingFor;cell34-46
3;agent0;34.57745;0;46.50906;LookingFor;cell34-46
4;agent0;34.12519;0;46.1872;LookingFor;cell34-46
5;agent0;33.75993;0;45.94015;LookingFor;cell34-46
6;agent0;33.44504;0;45.68234;LookingFor;cell32-44
7;agent0;33.20136;0;45.32125;LookingFor;cell32-44
8;agent0;33.04568;0;44.84086;LookingFor;cell32-44
9;agent0;32.85845;0;44.51514;LookingFor;cell32-44
10;agent0;32.64866;0;44.06039;LookingFor;cell32-44
11;agent0;32.54343;0;43.56485;LookingFor;cell32-44
12;agent0;32.26179;0;43.15573;LookingFor;cell32-42
13;agent0;31.89353;0;42.88452;LookingFor;cell32-42
14;agent0;31.36718;0;42.64808;LookingFor;cell30-42
15;agent0;31.73275;0;42.88027;LookingFor;cell30-42
16;agent0;32.10965;0;43.02505;LookingFor;cell30-42
17;agent0;32.43976;0;43.32695;LookingFor;cell32-42
18;agent0;32.66415;0;43.61626;LookingFor;cell32-42
19;agent0;32.85785;0;44.07465;LookingFor;cell32-42
20;agent0;33.06003;0;44.60365;LookingFor;cell32-44
21;agent0;33.17582;0;45.05267;LookingFor;cell32-44
22;agent0;33.29021;0;45.63663;LookingFor;cell32-44
23;agent0;33.43671;0;46.1895;LookingFor;cell32-44
24;agent0;33.53768;0;46.62653;LookingFor;cell32-46
25;agent0;33.69749;0;46.98632;LookingFor;cell32-46
26;agent0;33.84114;0;47.36787;LookingFor;cell32-46
27;agent0;34.01395;0;47.99007;LookingFor;cell32-46
28;agent0;33.97881;0;48.54108;LookingFor;cell34-46
29;agent0;34.02952;0;49.15916;LookingFor;cell32-48
30;agent0;34.09259;0;49.64018;LookingFor;cell34-48
31;agent0;34.07839;0;50.11105;LookingFor;cell34-48
32;agent0;33.98967;0;50.55404;LookingFor;cell34-50
33;agent0;33.97486;0;51.09621;LookingFor;cell32-50
34;agent0;34.00038;0;51.61932;LookingFor;cell32-50
35;agent0;34.01992;0;52.19551;Goal2;cell34-50
36;agent0;34.10645;0;52.72719;Goal2;cell34-52
37;agent0;34.15147;0;53.1582;Goal2;cell34-52
38;agent0;34.14895;0;53.70017;Goal2;cell34-52
39;agent0;34.26019;0;54.22924;Goal2;cell34-52
40;agent0;34.18052;0;54.76499;Goal2;cell34-54
41;agent0;34.12975;0;55.25451;Goal2;cell34-54
42;agent0;34.12597;0;55.78578;Goal2;cell34-54
43;agent0;34.07196;0;56.31946;Goal2;cell34-54
44;agent0;34.08476;0;56.79769;Goal2;cell34-56
45;agent0;34.05987;0;57.30867;Goal2;cell34-56
46;agent0;34.00168;0;57.79928;Goal2;cell34-56
47;agent0;34.06329;0;58.38972;Goal2;cell34-56
48;agent0;34.14997;0;58.84314;Goal2;cell34-58
49;agent0;34.17398;0;59.33421;Goal2;cell34-58
50;agent0;34.09692;0;59.89964;Goal2;cell34-58
51;agent0;34.09633;0;60.39663;Goal2;cell34-58
52;agent0;34.08336;0;60.88482;Goal2;cell34-60
53;agent0;34.15978;0;61.41549;Goal2;cell34-60
54;agent0;34.23549;0;61.88164;Goal2;cell34-60
55;agent0;34.27378;0;62.36497;Goal2;cell34-60
56;agent0;34.2399;0;62.88615;Goal2;cell34-62
57;agent0;34.25048;0;63.32954;Goal2;cell34-62
58;agent0;34.25638;0;63.79071;Goal2;cell34-62
59;agent0;34.26873;0;64.12146;Goal2;cell34-62
60;agent0;34.32056;0;64.50974;Goal2;cell34-64
61;agent0;34.40944;0;65.00382;Goal2;cell34-64
62;agent0;34.48504;0;65.41272;Goal2;cell34-64
63;agent0;34.51925;0;65.74678;Goal2;cell34-64
64;agent0;34.61803;0;66.10513;Goal2;cell34-64
65;agent0;34.77382;0;66.43679;Goal2;cell34-66
66;agent0;34.99273;0;66.87685;Goal2;cell34-66
67;agent0;35.18016;0;67.31119;Goal2;cell34-66
68;agent0;35.47219;0;67.64569;Goal2;cell34-66
69;agent0;35.74046;0;67.98027;Goal2;cell34-66
70;agent0;36.03814;0;68.45142;Goal2;cell34-66
71;agent0;36.32203;0;68.84521;Goal2;cell36-68
72;agent0;36.68445;0;69.20371;Goal2;cell36-68
73;agent0;36.95909;0;69.57171;Goal2;cell36-68
74;agent0;37.15835;0;70.07679;Goal2;cell36-68
75;agent0;37.40373;0;70.51936;Goal2;cell36-70
76;agent0;37.69492;0;70.86718;Goal2;cell36-70
77;agent0;38.0208;0;71.27665;Goal2;cell36-70
78;agent0;38.22041;0;71.73183;Goal2;cell38-70
79;agent0;38.47176;0;72.14561;Goal2;cell38-70
80;agent0;38.78737;0;72.46828;Goal2;cell38-72
81;agent0;39.0307;0;72.94042;Goal2;cell38-72
82;agent0;39.5328;0;73.25117;Goal2;cell38-72
83;agent0;39.93611;0;73.55282;Goal2;cell38-72
84;agent0;40.28976;0;73.87983;Goal2;cell38-72
85;agent0;40.42746;0;74.31395;Goal2;cell40-72
86;agent0;40.56644;0;74.68801;Goal2;cell40-74
87;agent0;40.78551;0;74.92744;Goal2;cell40-74
88;agent0;41.23137;0;75.10567;Goal2;cell40-74
89;agent0;41.75266;0;75.40506;Goal2;cell40-74
90;agent0;42.26381;0;75.67224;Goal2;cell40-74
91;agent0;42.75085;0;75.83807;Goal2;cell42-74
92;agent0;43.24018;0;75.84821;Goal2;cell42-74
93;agent0;43.68829;0;75.86702;Goal2;cell42-74
94;agent0;44.19646;0;75.88454;Goal2;cell42-74
95;agent0;44.64671;0;75.96752;Goal2;cell44-74
96;agent0;45.09364;0;76.07165;Goal2;cell44-74
97;agent0;45.56864;0;76.13161;Goal2;cell44-76
98;agent0;46.01386;0;76.16747;Goal2;cell44-76
99;agent0;46.44844;0;76.27838;Goal2;cell46-76
100;agent0;46.92916;0;76.32571;Goal2;cell46-76
101;agent0;47.47768;0;76.26179;Goal2;cell46-76
102;agent0;47.96276;0;76.23669;Goal2;cell46-76
103;agent0;48.39932;0;76.2056;Goal2;cell46-76
104;agent0;48.89666;0;76.21798;Goal2;cell48-76
105;agent0;49.40336;0;76.30186;Goal2;cell48-76
106;agent0;49.94075;0;76.34666;Goal2;cell48-76
107;agent0;50.42876;0;76.35715;Goal2;cell48-76
108;agent0;50.86485;0;76.26972;Goal2;cell50-76
109;agent0;51.36621;0;76.24609;Goal2;cell50-76
110;agent0;51.88605;0;76.32962;Goal2;cell50-76
111;agent0;52.34473;0;76.31795;Goal2;cell50-76
112;agent0;52.84057;0;76.25207;Goal2;cell52-76
113;agent0;53.28657;0;76.17178;Goal2;cell52-76
114;agent0;53.762;0;76.22143;Goal2;cell52-76
115;agent0;54.1736;0;76.23386;Goal2;cell52-76
116;agent0;54.6744;0;76.29354;Goal2;cell54-76
117;agent0;55.16058;0;76.33006;Goal2;cell54-76
118;agent0;55.68676;0;76.37319;Goal2;cell54-76
119;agent0;56.22025;0;76.29112;Goal2;cell54-76
120;agent0;56.70208;0;76.28539;LookingFor;cell56-76
121;agent0;56.17183;0;76.24892;LookingFor;cell56-76
122;agent0;55.67954;0;76.26952;LookingFor;cell56-76
123;agent0;55.21257;0;76.28445;LookingFor;cell54-76
124;agent0;54.78562;0;76.35941;LookingFor;cell54-76
125;agent0;54.27784;0;76.34592;LookingFor;cell54-76
126;agent0;53.78049;0;76.33343;LookingFor;cell54-76
127;agent0;53.24648;0;76.27496;LookingFor;cell52-76
128;agent0;52.73423;0;76.18848;LookingFor;cell52-76
129;agent0;52.27759;0;76.17973;LookingFor;cell52-76
130;agent0;51.84468;0;76.24397;LookingFor;cell52-76
131;agent0;51.34746;0;76.31242;LookingFor;cell50-76
132;agent0;50.85466;0;76.30131;LookingFor;cell50-76
133;agent0;50.36703;0;76.28951;LookingFor;cell50-76
134;agent0;49.85291;0;76.36379;LookingFor;cell50-76
135;agent0;49.40344;0;76.37009;LookingFor;cell48-76
136;agent0;48.92561;0;76.36809;LookingFor;cell48-76
137;agent0;48.40477;0;76.34961;LookingFor;cell48-76
138;agent0;47.89671;0;76.34056;LookingFor;cell48-76
139;agent0;47.38493;0;76.28373;LookingFor;cell46-76
140;agent0;46.94073;0;76.27325;LookingFor;cell46-76
141;agent0;46.41087;0;76.34035;LookingFor;cell46-76
142;agent0;45.90283;0;76.31136;LookingFor;cell46-76
143;agent0;45.38577;0;76.31628;LookingFor;cell44-76
144;agent0;44.84198;0;76.37344;LookingFor;cell44-76
145;agent0;44.41872;0;76.34585;LookingFor;cell44-76
146;agent0;43.95868;0;76.33641;LookingFor;cell44-76
147;agent0;43.50655;0;76.33239;LookingFor;cell42-76
148;agent0;43.02508;0;76.33675;LookingFor;cell42-76
149;agent0;42.49165;0;76.33621;LookingFor;cell42-76
150;agent0;42.06604;0;76.37037;LookingFor;cell42-76
151;agent0;41.71855;0;76.36424;LookingFor;cell42-76
152;agent0;41.31159;0;76.44837;LookingFor;cell40-76
153;agent0;40.8582;0;76.57748;LookingFor;cell40-76
154;agent0;40.32053;0;76.74759;LookingFor;cell40-76
155;agent0;39.91685;0;76.90025;LookingFor;cell40-76
156;agent0;39.53173;0;77.14943;LookingFor;cell38-76
157;agent0;38.97541;0;77.42667;LookingFor;cell38-76
158;agent0;38.5084;0;77.73667;LookingFor;cell38-76
159;agent0;38.12725;0;77.86749;LookingFor;cell38-76
160;agent0;37.74907;0;77.93895;LookingFor;cell38-76
161;agent0;37.2763;0;78.01396;LookingFor;cell36-76
162;agent0;36.7821;0;78.16977;LookingFor;cell36-78
163;agent0;36.5219;0;78.56932;LookingFor;cell36-78
164;agent0;36.32288;0;79.01679;LookingFor;cell36-78
165;agent0;36.07667;0;79.38585;LookingFor;cell36-78
166;agent0;35.73861;0;79.75507;LookingFor;cell36-78
167;agent0;35.46392;0;80.1236;LookingFor;cell34-78
168;agent0;35.17797;0;80.46622;LookingFor;cell34-80
169;agent0;34.73687;0;80.81933;LookingFor;cell34-80
170;agent0;34.30171;0;81.12965;LookingFor;cell34-80
171;agent0;33.90644;0;81.42488;LookingFor;cell34-80
172;agent0;33.53838;0;81.68599;LookingFor;cell32-80
173;agent0;33.43473;0;82.04276;LookingFor;cell32-80
174;agent0;33.41263;0;82.49854;LookingFor;cell32-82
175;agent0;33.22738;0;82.83574;LookingFor;cell32-82
176;agent0;33.5034;0;82.42692;LookingFor;cell32-82
177;agent0;33.64111;0;81.78874;LookingFor;cell32-82
178;agent0;33.70997;0;81.20313;LookingFor;cell32-80
179;agent0;33.77508;0;80.6827;LookingFor;cell32-80
180;agent0;33.66628;0;80.19596;LookingFor;cell32-80
181;agent0;33.69786;0;79.7141;LookingFor;cell32-80
182;agent0;33.75394;0;79.21918;LookingFor;cell32-78
183;agent0;33.70997;0;78.79063;LookingFor;cell32-78
184;agent0;33.67283;0;78.25694;LookingFor;cell32-78
185;agent0;33.7612;0;77.91395;LookingFor;cell32-78
186;agent0;33.833;0;77.45551;LookingFor;cell32-76
187;agent0;33.94686;0;76.87844;LookingFor;cell32-76
188;agent0;33.94027;0;76.36804;LookingFor;cell32-76
189;agent0;33.9463;0;75.95011;LookingFor;cell32-76
190;agent0;33.86996;0;75.43862;LookingFor;cell32-74
191;agent0;33.91087;0;75.01065;LookingFor;cell32-74
192;agent0;34.00634;0;74.65944;LookingFor;cell32-74
193;agent0;34.09013;0;74.10669;LookingFor;cell34-74
194;agent0;34.07574;0;73.49083;LookingFor;cell34-74
195;agent0;34.0763;0;72.98048;LookingFor;cell34-72
196;agent0;34.0589;0;72.45831;LookingFor;cell34-72
197;agent0;33.97615;0;71.85866;LookingFor;cell34-72
198;agent0;33.92572;0;71.28125;LookingFor;cell32-70
199;agent0;33.98535;0;70.70705;LookingFor;cell32-70
200;agent0;34.03828;0;70.21873;LookingFor;cell32-70
201;agent0;34.08286;0;69.66573;LookingFor;cell34-70
202;agent0;34.08065;0;69.21317;LookingFor;cell34-68
203;agent0;34.09678;0;68.6489;LookingFor;cell34-68
204;agent0;34.05002;0;68.14071;LookingFor;cell34-68
205;agent0;34.07587;0;67.56236;LookingFor;cell34-68
206;agent0;34.10668;0;67.07235;LookingFor;cell34-66
207;agent0;34.06001;0;66.61504;LookingFor;cell34-66
208;agent0;33.97416;0;66.03027;LookingFor;cell34-66
209;agent0;34.03054;0;65.44556;LookingFor;cell32-66
210;agent0;34.10645;0;64.92088;LookingFor;cell34-64
211;agent0;34.05103;0;64.34504;LookingFor;cell34-64
212;agent0;34.01344;0;63.76831;LookingFor;cell34-64
213;agent0;34.13339;0;63.1628;LookingFor;cell34-62
214;agent0;34.10238;0;62.62612;LookingFor;cell34-62
215;agent0;34.14197;0;62.14336;LookingFor;cell34-62
216;agent0;34.1666;0;61.64231;LookingFor;cell34-62
217;agent0;34.18935;0;61.19247;LookingFor;cell34-60
218;agent0;34.22314;0;60.73534;LookingFor;cell34-60
219;agent0;34.16836;0;60.1747;LookingFor;cell34-60
220;agent0;34.15888;0;59.75937;LookingFor;cell34-60
221;agent0;34.13889;0;59.3321;LookingFor;cell34-58
222;agent0;34.12121;0;58.82615;LookingFor;cell34-58
223;agent0;34.19973;0;58.29643;LookingFor;cell34-58
224;agent0;34.21011;0;57.79636;LookingFor;cell34-58
225;agent0;34.18853;0;57.38966;LookingFor;cell34-56
226;agent0;34.15554;0;56.88023;LookingFor;cell34-56
227;agent0;34.24473;0;56.32858;LookingFor;cell34-56
228;agent0;34.34129;0;55.86547;LookingFor;cell34-56
229;agent0;34.34176;0;55.42772;LookingFor;cell34-54
230;agent0;34.25915;0;55.02324;LookingFor;cell34-54
231;agent0;34.31744;0;54.59992;LookingFor;cell34-54
232;agent0;34.48658;0;54.1734;LookingFor;cell34-54
233;agent0;34.62471;0;53.8414;LookingFor;cell34-54
234;agent0;34.87769;0;53.55226;LookingFor;cell34-52
235;agent0;35.16049;0;53.17442;LookingFor;cell34-52
236;agent0;35.43015;0;52.76197;LookingFor;cell34-52
237;agent0;35.81559;0;52.32518;LookingFor;cell34-52
238;agent0;36.20558;0;51.99883;LookingFor;cell34-52
239;agent0;36.50842;0;51.65392;LookingFor;cell36-50
240;agent0;36.80817;0;51.23999;LookingFor;cell36-50
241;agent0;37.11464;0;50.85119;LookingFor;cell36-50
242;agent0;37.34152;0;50.44098;LookingFor;cell36-50
243;agent0;37.58406;0;50.10426;LookingFor;cell36-50
244;agent0;37.97986;0;49.66121;LookingFor;cell36-50
245;agent0;38.262;0;49.27404;LookingFor;cell36-48
246;agent0;38.63638;0;48.8259;LookingFor;cell38-48
247;agent0;38.89079;0;48.49495;LookingFor;cell38-48
248;agent0;39.30059;0;48.23269;LookingFor;cell38-48
249;agent0;39.83295;0;48.05246;LookingFor;cell38-48
250;agent0;40.25703;0;47.83391;LookingFor;cell38-48
251;agent0;40.43092;0;47.49629;LookingFor;cell40-46
252;agent0;40.52708;0;47.07399;LookingFor;cell40-46
253;agent0;40.79648;0;46.67532;LookingFor;cell40-46
254;agent0;41.23346;0;46.5214;LookingFor;cell40-46
255;agent0;41.8347;0;46.3355;LookingFor;cell40-46
256;agent0;42.41481;0;46.34672;LookingFor;cell40-46
257;agent0;42.97999;0;46.37101;LookingFor;cell42-46
258;agent0;43.49785;0;46.30874;LookingFor;cell42-46
259;agent0;44.03165;0;46.24532;LookingFor;cell42-46
260;agent0;44.58859;0;46.27175;LookingFor;cell44-46
261;agent0;45.11507;0;46.2939;LookingFor;cell44-46
262;agent0;45.73247;0;46.23059;LookingFor;cell44-46
263;agent0;46.23028;0;46.22188;LookingFor;cell44-46
264;agent0;46.74657;0;46.26493;LookingFor;cell46-46
265;agent0;47.18974;0;46.28136;LookingFor;cell46-46
266;agent0;47.64598;0;46.25472;LookingFor;cell46-46
267;agent0;48.12312;0;46.17918;LookingFor;cell46-46
268;agent0;48.72034;0;46.18246;LookingFor;cell48-46
269;agent0;49.17506;0;46.22724;LookingFor;cell48-46
270;agent0;49.54678;0;46.2807;LookingFor;cell48-46
271;agent0;50.08114;0;46.35045;LookingFor;cell48-46
272;agent0;50.59135;0;46.31029;LookingFor;cell50-46
273;agent0;51.14819;0;46.26095;LookingFor;cell50-46
274;agent0;51.61513;0;46.18228;LookingFor;cell50-46
275;agent0;52.07965;0;46.11059;LookingFor;cell50-46
276;agent0;52.54273;0;46.13588;LookingFor;cell52-46
277;agent0;53.05595;0;46.19491;LookingFor;cell52-46
278;agent0;53.57916;0;46.27262;LookingFor;cell52-46
279;agent0;54.1182;0;46.26795;LookingFor;cell52-46
280;agent0;54.58529;0;46.14982;LookingFor;cell54-46
281;agent0;55.1291;0;46.25764;LookingFor;cell54-46
282;agent0;55.61655;0;46.24332;LookingFor;cell54-46
283;agent0;56.14243;0;46.23007;LookingFor;cell54-46
284;agent0;56.61381;0;46.21083;LookingFor;cell56-46
285;agent0;57.13338;0;46.20388;LookingFor;cell56-46
286;agent0;57.6101;0;46.16623;LookingFor;cell56-46
287;agent0;58.15316;0;46.14252;LookingFor;cell56-46
288;agent0;58.66015;0;46.19898;LookingFor;cell58-46
289;agent0;59.19153;0;46.20304;LookingFor;cell58-46
290;agent0;59.61726;0;46.24596;LookingFor;cell58-46
291;agent0;60.09414;0;46.17471;LookingFor;cell58-46
292;agent0;60.63405;0;46.18065;LookingFor;cell60-46
293;agent0;61.18363;0;46.16997;LookingFor;cell60-46
294;agent0;61.66241;0;46.11694;LookingFor;cell60-46
295;agent0;62.1004;0;46.18796;LookingFor;cell60-46
296;agent0;62.57272;0;46.26801;LookingFor;cell62-46
297;agent0;63.11498;0;46.26036;LookingFor;cell62-46
298;agent0;63.67159;0;46.20392;LookingFor;cell62-46
299;agent0;64.17542;0;46.1447;LookingFor;cell62-46
300;agent0;64.68523;0;46.053;LookingFor;cell64-46
301;agent0;65.10527;0;46.04241;LookingFor;cell64-46
302;agent0;65.60157;0;46.08381;LookingFor;cell64-46
303;agent0;66.1328;0;46.0815;LookingFor;cell64-46
304;agent0;66.56565;0;46.1016;LookingFor;cell66-46
305;agent0;67.06882;0;46.12661;LookingFor;cell66-46
306;agent0;67.51604;0;46.14022;LookingFor;cell66-46
307;agent0;68.02352;0;46.08411;LookingFor;cell66-46
308;agent0;68.49838;0;46.02195;LookingFor;cell68-46
309;agent0;68.91534;0;45.96484;LookingFor;cell68-46
310;agent0;69.38898;0;45.90166;LookingFor;cell68-44
311;agent0;69.8717;0;45.86992;LookingFor;cell68-44
312;agent0;70.33076;0;45.81786;LookingFor;cell68-44
313;agent0;70.6803;0;45.76751;LookingFor;cell70-44
314;agent0;71.09747;0;45.67619;LookingFor;cell70-44
315;agent0;71.54858;0;45.51849;LookingFor;cell70-44
316;agent0;71.93723;0;45.26493;LookingFor;cell70-44
317;agent0;71.48084;0;45.35748;LookingFor;cell70-44
318;agent0;70.94479;0;45.3955;LookingFor;cell70-44
319;agent0;70.41588;0;45.56904;LookingFor;cell70-44
320;agent0;69.92845;0;45.69912;LookingFor;cell70-44
321;agent0;69.5054;0;45.78256;LookingFor;cell68-44
322;agent0;69.12357;0;45.85371;LookingFor;cell68-44
323;agent0;68.62774;0;45.93608;LookingFor;cell68-44
324;agent0;68.14869;0;46.02437;LookingFor;cell68-44
325;agent0;67.67981;0;46.14778;LookingFor;cell68-46
326;agent0;67.17846;0;46.28802;LookingFor;cell66-46
327;agent0;66.67188;0;46.33655;LookingFor;cell66-46
328;agent0;66.10401;0;46.28649;LookingFor;cell66-46
329;agent0;65.73321;0;46.31177;LookingFor;cell66-46
330;agent0;65.2079;0;46.29336;LookingFor;cell64-46
331;agent0;64.66624;0;46.25639;LookingFor;cell64-46
332;agent0;64.1742;0;46.18524;LookingFor;cell64-46
333;agent0;63.63376;0;46.23128;LookingFor;cell64-46
334;agent0;63.14223;0;46.24938;LookingFor;cell62-46
335;agent0;62.63625;0;46.32206;LookingFor;cell62-46
336;agent0;62.09146;0;46.35441;LookingFor;cell62-46
337;agent0;61.54078;0;46.31424;LookingFor;cell62-46
338;agent0;61.01338;0;46.28516;LookingFor;cell60-46
339;agent0;60.57125;0;46.23554;LookingFor;cell60-46
340;agent0;60.12764;0;46.22407;LookingFor;cell60-46
341;agent0;59.55438;0;46.26595;LookingFor;cell60-46
342;agent0;59.05886;0;46.26422;LookingFor;cell58-46
343;agent0;58.5333;0;46.34204;LookingFor;cell58-46
344;agent0;58.05638;0;46.28526;LookingFor;cell58-46
345;agent0;57.49636;0;46.27408;LookingFor;cell58-46
346;agent0;56.96527;0;46.2627;LookingFor;cell56-46
347;agent0;56.38287;0;46.26054;LookingFor;cell56-46
348;agent0;55.86733;0;46.29955;LookingFor;cell56-46
349;agent0;55.36016;0;46.32613;LookingFor;cell54-46
350;agent0;54.87721;0;46.34078;LookingFor;cell54-46
351;agent0;54.31559;0;46.3103;LookingFor;cell54-46
352;agent0;53.78469;0;46.31307;LookingFor;cell54-46
353;agent0;53.27935;0;46.29689;LookingFor;cell52-46
354;agent0;52.75115;0;46.31957;LookingFor;cell52-46
355;agent0;52.27072;0;46.27929;LookingFor;cell52-46
356;agent0;51.77504;0;46.22338;LookingFor;cell52-46
357;agent0;51.21634;0;46.21152;LookingFor;cell50-46
358;agent0;50.77804;0;46.26877;LookingFor;cell50-46
359;agent0;50.26866;0;46.33565;LookingFor;cell50-46
360;agent0;49.75695;0;46.33749;LookingFor;cell50-46
361;agent0;49.14709;0;46.38748;LookingFor;cell48-46
362;agent0;48.65366;0;46.33793;LookingFor;cell48-46
363;agent0;48.22785;0;46.28363;LookingFor;cell48-46
364;agent0;47.73484;0;46.28353;LookingFor;cell48-46
365;agent0;47.12351;0;46.34173;LookingFor;cell46-46
366;agent0;46.65122;0;46.33382;LookingFor;cell46-46
367;agent0;46.07235;0;46.35794;LookingFor;cell46-46
368;agent0;45.64677;0;46.29741;LookingFor;cell46-46
369;agent0;45.16476;0;46.26281;LookingFor;cell44-46
370;agent0;44.62902;0;46.29432;LookingFor;cell44-46
371;agent0;44.08774;0;46.36719;LookingFor;cell44-46
372;agent0;43.55389;0;46.32606;LookingFor;cell44-46
373;agent0;43.03842;0;46.37035;LookingFor;cell42-46
374;agent0;42.52905;0;46.42818;LookingFor;cell42-46
375;agent0;42.08208;0;46.42625;LookingFor;cell42-46
376;agent0;41.64816;0;46.47421;LookingFor;cell42-46
377;agent0;41.20578;0;46.54593;LookingFor;cell40-46
378;agent0;40.72741;0;46.66485;LookingFor;cell40-46
379;agent0;40.53811;0;47.06726;LookingFor;cell40-46
380;agent0;40.40265;0;47.52124;LookingFor;cell40-46
381;agent0;40.1942;0;48.10825;LookingFor;cell40-46
382;agent0;40.21658;0;48.65168;LookingFor;cell40-48
383;agent0;40.22807;0;49.18422;LookingFor;cell40-48
384;agent0;40.21937;0;49.64687;LookingFor;cell40-48
385;agent0;40.26803;0;50.17147;LookingFor;cell40-48
386;agent0;40.27341;0;50.71833;LookingFor;cell40-50
387;agent0;40.26724;0;51.25638;LookingFor;cell40-50
388;agent0;40.29001;0;51.86561;LookingFor;cell40-50
389;agent0;40.22205;0;52.37311;LookingFor;cell40-50
390;agent0;40.23703;0;52.85154;LookingFor;cell40-52
391;agent0;40.26818;0;53.33199;LookingFor;cell40-52
392;agent0;40.28103;0;53.90391;LookingFor;cell40-52
393;agent0;40.23417;0;54.4217;LookingFor;cell40-52
394;agent0;40.19417;0;54.92226;LookingFor;cell40-54
395;agent0;40.25886;0;55.49136;LookingFor;cell40-54
396;agent0;40.19298;0;56.02524;LookingFor;cell40-54
397;agent0;40.11702;0;56.51707;LookingFor;cell40-56
398;agent0;40.16927;0;56.97071;LookingFor;cell40-56
399;agent0;40.2066;0;57.54495;LookingFor;cell40-56
400;agent0;40.23154;0;58.04401;LookingFor;cell40-56
401;agent0;40.25716;0;58.43609;LookingFor;cell40-58
402;agent0;40.28606;0;58.87045;LookingFor;cell40-58
403;agent0;40.29334;0;59.42678;LookingFor;cell40-58
404;agent0;40.26991;0;59.97511;LookingFor;cell40-58
405;agent0;40.27283;0;60.47987;LookingFor;cell40-58
406;agent0;40.21062;0;60.99197;LookingFor;cell40-60
407;agent0;40.19269;0;61.55943;LookingFor;cell40-60
408;agent0;40.14185;0;62.11576;LookingFor;cell40-60
409;agent0;40.14814;0;62.58654;LookingFor;cell40-62
410;agent0;40.172;0;62.98876;LookingFor;cell40-62
411;agent0;40.24492;0;63.51151;LookingFor;cell40-62
412;agent0;40.23115;0;64.04022;LookingFor;cell40-62
413;agent0;40.1753;0;64.57291;LookingFor;cell40-64
414;agent0;40.24647;0;65.09429;LookingFor;cell40-64
415;agent0;40.24238;0;65.50253;LookingFor;cell40-64
416;agent0;40.21647;0;66.03684;LookingFor;cell40-64
417;agent0;40.21804;0;66.59286;LookingFor;cell40-66
418;agent0;40.22596;0;67.1102;LookingFor;cell40-66
419;agent0;40.26933;0;67.57436;LookingFor;cell40-66
420;agent0;40.32549;0;68.04867;LookingFor;cell40-66
421;agent0;40.25992;0;68.64407;LookingFor;cell40-68
422;agent0;40.14168;0;69.17218;LookingFor;cell40-68
423;agent0;40.08997;0;69.57329;LookingFor;cell40-68
424;agent0;40.08543;0;69.99404;LookingFor;cell40-68
425;agent0;40.11088;0;70.56348;LookingFor;cell40-68
426;agent0;40.11829;0;71.05149;LookingFor;cell40-70
427;agent0;40.18301;0;71.59127;LookingFor;cell40-70
428;agent0;40.21472;0;72.11021;LookingFor;cell40-70
429;agent0;40.10088;0;72.60936;LookingFor;cell40-72
430;agent0;39.99049;0;73.10201;LookingFor;cell40-72
431;agent0;39.90338;0;73.60716;LookingFor;cell38-72
432;agent0;39.80743;0;74.09227;LookingFor;cell38-72
433;agent0;39.75428;0;74.55434;LookingFor;cell38-74
434;agent0;39.67177;0;74.87477;LookingFor;cell38-74
435;agent0;39.46165;0;75.15965;LookingFor;cell38-74
436;agent0;39.25574;0;75.5631;LookingFor;cell38-74
437;agent0;38.97401;0;75.94997;LookingFor;cell38-74
438;agent0;38.70801;0;76.30782;LookingFor;cell38-74
439;agent0;38.40937;0;76.67158;LookingFor;cell38-76
440;agent0;38.15809;0;77.16797;LookingFor;cell38-76
441;agent0;38.11082;0;77.53846;LookingFor;cell38-76
442;agent0;38.07114;0;78.00481;LookingFor;cell38-76
443;agent0;38.00477;0;78.32081;LookingFor;cell38-78
444;agent0;37.82131;0;78.72227;LookingFor;cell38-78
445;agent0;37.55973;0;79.26586;LookingFor;cell36-78
446;agent0;37.20054;0;79.67138;LookingFor;cell36-78
447;agent0;36.94139;0;80.03838;LookingFor;cell36-78
448;agent0;36.59969;0;80.42879;LookingFor;cell36-80
449;agent0;36.32247;0;80.78241;LookingFor;cell36-80
450;agent0;36.09118;0;81.16813;LookingFor;cell36-80
451;agent0;35.85832;0;81.67275;LookingFor;cell36-80
452;agent0;35.67556;0;82.11044;LookingFor;cell34-80
453;agent0;35.58692;0;82.56512;LookingFor;cell34-82
454;agent0;35.41545;0;82.90778;LookingFor;cell34-82
455;agent0;35.23768;0;83.24999;LookingFor;cell34-82
456;agent0;35.0674;0;83.81784;LookingFor;cell34-82
457;agent0;35.04851;0;84.18005;LookingFor;cell34-82
458;agent0;35.0437;0;84.67291;LookingFor;cell34-84
459;agent0;34.81105;0;85.1814;LookingFor;cell34-84
460;agent0;34.51917;0;85.61987;LookingFor;cell34-84
461;agent0;34.91981;0;85.62198;LookingFor;cell34-84
462;agent0;35.44613;0;85.69965;LookingFor;cell34-84
463;agent0;35.89106;0;85.7147;LookingFor;cell34-84
464;agent0;36.35962;0;85.83361;LookingFor;cell34-84
465;agent0;36.91814;0;85.85113;LookingFor;cell36-84
466;agent0;37.45965;0;85.81389;LookingFor;cell36-84
467;agent0;37.91088;0;85.70696;LookingFor;cell36-84
468;agent0;38.41608;0;85.68625;LookingFor;cell36-84
469;agent0;38.88097;0;85.67152;LookingFor;cell38-84
470;agent0;39.31195;0;85.69891;LookingFor;cell38-84
471;agent0;39.78624;0;85.7546;LookingFor;cell38-84
472;agent0;40.29958;0;85.68817;LookingFor;cell38-84
473;agent0;40.68781;0;85.60587;LookingFor;cell40-84
474;agent0;41.05567;0;85.54874;LookingFor;cell40-84
475;agent0;41.50721;0;85.42793;LookingFor;cell40-84
476;agent0;41.89542;0;85.20216;LookingFor;cell40-84
477;agent0;42.3051;0;85.09026;LookingFor;cell40-84
478;agent0;42.94609;0;84.97736;LookingFor;cell42-84
479;agent0;43.45933;0;84.95766;LookingFor;cell42-84
480;agent0;43.8706;0;84.91006;LookingFor;cell42-84
481;agent0;44.29848;0;84.87794;LookingFor;cell42-84
482;agent0;44.8259;0;84.82614;LookingFor;cell44-84
483;agent0;45.35577;0;84.69623;LookingFor;cell44-84
484;agent0;45.67567;0;84.51765;LookingFor;cell44-84
485;agent0;46.05394;0;84.48901;LookingFor;cell44-84
486;agent0;46.51911;0;84.51091;LookingFor;cell46-84
487;agent0;46.90839;0;84.55576;LookingFor;cell46-84
488;agent0;47.42612;0;84.62917;LookingFor;cell46-84
489;agent0;47.83606;0;84.71481;LookingFor;cell46-84
490;agent0;47.46651;0;84.56004;LookingFor;cell46-84
491;agent0;47.01173;0;84.38207;LookingFor;cell46-84
492;agent0;46.61626;0;84.19144;LookingFor;cell46-84
493;agent0;46.17578;0;83.84727;LookingFor;cell46-84
494;agent0;45.66118;0;83.61038;LookingFor;cell46-82
495;agent0;45.20734;0;83.65678;LookingFor;cell44-82
496;agent0;44.73835;0;83.53655;LookingFor;cell44-82
497;agent0;44.21775;0;83.39153;LookingFor;cell44-82
498;agent0;43.73729;0;83.3241;LookingFor;cell44-82
499;agent0;43.18479;0;83.2557;LookingFor;cell42-82
500;agent0;42.71734;0;83.2701;LookingFor;cell42-82
501;agent0;42.28257;0;83.35863;LookingFor;cell42-82
502;agent0;41.92464;0;83.23639;LookingFor;cell42-82
503;agent0;41.55273;0;83.08513;LookingFor;cell40-82
504;agent0;41.25287;0;82.80838;LookingFor;cell40-82
505;agent0;40.83892;0;82.30247;LookingFor;cell40-82
506;agent0;40.66445;0;81.83487;LookingFor;cell40-82
507;agent0;40.52928;0;81.37094;LookingFor;cell40-80
508;agent0;40.3575;0;80.87321;LookingFor;cell40-80
509;agent0;40.23973;0;80.42064;LookingFor;cell40-80
510;agent0;40.15117;0;79.91254;LookingFor;cell40-80
511;agent0;39.99376;0;79.53282;LookingFor;cell40-78
512;agent0;39.83733;0;79.09802;LookingFor;cell38-78
513;agent0;39.66339;0;78.61506;LookingFor;cell38-78
514;agent0;39.40309;0;78.21313;LookingFor;cell38-78
515;agent0;39.09941;0;77.79847;LookingFor;cell38-78
516;agent0;38.79468;0;77.44394;LookingFor;cell38-76
517;agent0;38.48438;0;77.16039;LookingFor;cell38-76
518;agent0;38.16665;0;76.83479;LookingFor;cell38-76
519;agent0;37.88197;0;76.36598;LookingFor;cell38-76
520;agent0;37.56619;0;76.04899;LookingFor;cell36-76
521;agent0;37.30451;0;75.73975;LookingFor;cell36-76
522;agent0;37.04639;0;75.3297;LookingFor;cell36-74
523;agent0;36.88739;0;74.94977;LookingFor;cell36-74
524;agent0;36.68602;0;74.56371;LookingFor;cell36-74
525;agent0;36.45144;0;74.14234;LookingFor;cell36-74
526;agent0;36.10136;0;73.66013;LookingFor;cell36-74
527;agent0;35.87536;0;73.26246;LookingFor;cell36-72
528;agent0;35.69325;0;72.84207;LookingFor;cell34-72
529;agent0;35.58263;0;72.39492;LookingFor;cell34-72
530;agent0;35.52346;0;71.99796;LookingFor;cell34-72
531;agent0;35.44802;0;71.61412;LookingFor;cell34-70
532;agent0;35.2189;0;71.06795;LookingFor;cell34-70
533;agent0;35.18984;0;70.59377;LookingFor;cell34-70
534;agent0;35.31923;0;70.14818;LookingFor;cell34-70
535;agent0;35.4006;0;69.77502;LookingFor;cell34-70
536;agent0;35.57054;0;69.37085;LookingFor;cell34-68
537;agent0;35.70909;0;68.8832;LookingFor;cell34-68
538;agent0;35.81188;0;68.42389;LookingFor;cell34-68
539;agent0;35.87554;0;67.92651;LookingFor;cell34-68
540;agent0;35.87566;0;67.4001;LookingFor;cell34-66
541;agent0;35.93431;0;66.89474;LookingFor;cell34-66
542;agent0;35.9517;0;66.41681;LookingFor;cell34-66
543;agent0;35.96007;0;65.95383;LookingFor;cell34-66
544;agent0;35.90638;0;65.52136;LookingFor;cell34-64
545;agent0;35.90616;0;64.93774;LookingFor;cell34-64
546;agent0;35.98743;0;64.47061;LookingFor;cell34-64
547;agent0;36.07618;0;64.07133;LookingFor;cell34-64
548;agent0;36.29298;0;63.7031;LookingFor;cell36-64
549;agent0;36.46257;0;63.22507;LookingFor;cell36-62
550;agent0;36.53187;0;62.91208;LookingFor;cell36-62
551;agent0;36.56793;0;62.5758;LookingFor;cell36-62
552;agent0;36.65367;0;62.07138;LookingFor;cell36-62
553;agent0;36.55304;0;61.63157;LookingFor;cell36-62
554;agent0;36.48077;0;61.1228;LookingFor;cell36-60
555;agent0;36.49376;0;60.67714;LookingFor;cell36-60
556;agent0;36.52055;0;60.27856;LookingFor;cell36-60
557;agent0;36.65208;0;59.83907;LookingFor;cell36-60
558;agent0;36.78992;0;59.43895;LookingFor;cell36-58
559;agent0;36.7932;0;59.04014;LookingFor;cell36-58
560;agent0;36.95145;0;58.50282;LookingFor;cell36-58
561;agent0;36.97282;0;58.09681;LookingFor;cell36-58
562;agent0;37.1386;0;57.63499;LookingFor;cell36-58
563;agent0;37.20427;0;57.11298;LookingFor;cell36-56
564;agent0;37.21839;0;56.68804;LookingFor;cell36-56
565;agent0;37.22358;0;56.2503;LookingFor;cell36-56
566;agent0;37.10299;0;55.76899;LookingFor;cell36-56
567;agent0;36.99578;0;55.27525;LookingFor;cell36-54
568;agent0;37.0413;0;54.78933;LookingFor;cell36-54
569;agent0;37.01186;0;54.31902;LookingFor;cell36-54
570;agent0;36.90763;0;53.86212;LookingFor;cell36-54
571;agent0;36.87226;0;53.36319;LookingFor;cell36-52
572;agent0;36.91516;0;52.99527;LookingFor;cell36-52
573;agent0;36.81402;0;52.52768;LookingFor;cell36-52
574;agent0;36.62104;0;52.01075;LookingFor;cell36-52
575;agent0;36.53358;0;51.49306;LookingFor;cell36-52
576;agent0;36.65899;0;51.05384;LookingFor;cell36-50
577;agent0;36.77796;0;50.5257;LookingFor;cell36-50
578;agent0;36.77827;0;50.09052;LookingFor;cell36-50
579;agent0;36.83213;0;49.70518;LookingFor;cell36-50
580;agent0;36.87383;0;49.25185;LookingFor;cell36-48
581;agent0;36.87128;0;48.69748;LookingFor;cell36-48
582;agent0;37.03238;0;48.21098;LookingFor;cell36-48
583;agent0;37.17476;0;47.82692;LookingFor;cell36-48
584;agent0;37.21548;0;47.32938;LookingFor;cell36-46
585;agent0;37.35709;0;46.8055;LookingFor;cell36-46
586;agent0;37.43288;0;46.38585;LookingFor;cell36-46
587;agent0;37.55165;0;45.91012;LookingFor;cell36-46
588;agent0;37.59214;0;45.45399;LookingFor;cell36-44
589;agent0;37.65239;0;45.12047;LookingFor;cell36-44
590;agent0;37.7134;0;44.65656;LookingFor;cell36-44
591;agent0;37.8746;0;44.11622;LookingFor;cell36-44
592;agent0;37.88998;0;43.62431;LookingFor;cell36-44
593;agent0;37.92398;0;43.14469;LookingFor;cell36-42
594;agent0;37.96177;0;42.68285;LookingFor;cell36-42
595;agent0;38.10747;0;42.32949;LookingFor;cell36-42
596;agent0;38.18832;0;41.92062;LookingFor;cell38-42
597;agent0;38.19277;0;41.36347;LookingFor;cell38-40
598;agent0;38.40165;0;40.93092;LookingFor;cell38-40
599;agent0;38.48549;0;40.47555;LookingFor;cell38-40
600;agent0;38.50508;0;39.9984;LookingFor;cell38-40
601;agent0;38.45358;0;39.49316;LookingFor;cell38-38
602;agent0;38.63167;0;39.03159;LookingFor;cell38-38
603;agent0;38.76628;0;38.50897;LookingFor;cell38-38
604;agent0;38.84672;0;38.06075;LookingFor;cell38-38
605;agent0;38.84227;0;37.52257;LookingFor;cell38-38
606;agent0;38.9076;0;37.1656;LookingFor;cell38-36
607;agent0;39.02635;0;36.70991;LookingFor;cell38-36
608;agent0;39.11934;0;36.25591;LookingFor;cell38-36
609;agent0;39.18398;0;35.83843;LookingFor;cell38-36
610;agent0;39.25981;0;35.28474;LookingFor;cell38-34
611;agent0;39.25609;0;34.74321;LookingFor;cell38-34
612;agent0;39.17986;0;34.19691;LookingFor;cell38-34
613;agent0;39.19127;0;33.76762;LookingFor;cell38-34
614;agent0;39.24836;0;33.29556;LookingFor;cell38-32
615;agent0;39.30145;0;32.80719;LookingFor;cell38-32
616;agent0;39.35577;0;32.41708;LookingFor;cell38-32
617;agent0;39.39121;0;31.94513;LookingFor;cell38-32
618;agent0;39.31154;0;31.43611;LookingFor;cell38-30
619;agent0;39.45428;0;31.0334;LookingFor;cell38-30
620;agent0;39.65004;0;30.5412;LookingFor;cell38-30
621;agent0;39.78532;0;30.02193;LookingFor;cell38-30
622;agent0;39.81283;0;29.56164;LookingFor;cell38-30
623;agent0;39.92293;0;29.01018;LookingFor;cell38-28
624;agent0;39.9451;0;28.62932;LookingFor;cell38-28
625;agent0;40.0783;0;28.19182;LookingFor;cell38-28
626;agent0;40.15762;0;27.62431;LookingFor;cell40-28
627;agent0;40.17717;0;27.09323;LookingFor;cell40-26
628;agent0;40.08935;0;26.56602;LookingFor;cell40-26
629;agent0;40.07669;0;26.14709;LookingFor;cell40-26
630;agent0;40.04009;0;25.69309;LookingFor;cell40-26
631;agent0;40.05698;0;25.20419;LookingFor;cell40-24
632;agent0;39.98907;0;24.71246;LookingFor;cell40-24
633;agent0;39.98555;0;24.26593;LookingFor;cell38-24
634;agent0;40.02038;0;23.8349;LookingFor;cell38-24
635;agent0;40.07821;0;23.30599;LookingFor;cell40-22
636;agent0;40.04651;0;22.7368;LookingFor;cell40-22
637;agent0;40.02584;0;22.24571;LookingFor;cell40-22
638;agent0;39.92177;0;21.76237;LookingFor;cell40-22
639;agent0;39.76463;0;21.42792;LookingFor;cell38-20
640;agent0;39.64938;0;21.0832;LookingFor;cell38-20
641;agent0;39.5429;0;20.70672;LookingFor;cell38-20
642;agent0;39.36513;0;20.21522;LookingFor;cell38-20
643;agent0;39.18454;0;19.66608;LookingFor;cell38-20
644;agent0;39.06433;0;19.28285;LookingFor;cell38-18
645;agent0;38.95444;0;18.81223;LookingFor;cell38-18
646;agent0;38.82879;0;18.23311;LookingFor;cell38-18
647;agent0;38.76714;0;17.81846;LookingFor;cell38-18
648;agent0;38.7592;0;17.38643;LookingFor;cell38-16
649;agent0;38.70536;0;16.88907;LookingFor;cell38-16
650;agent0;38.66427;0;16.39371;LookingFor;cell38-16
651;agent0;38.59052;0;15.8965;LookingFor;cell38-16
652;agent0;38.59314;0;15.3326;LookingFor;cell38-14
653;agent0;38.52505;0;14.92092;LookingFor;cell38-14
654;agent0;38.33894;0;14.53061;LookingFor;cell38-14
655;agent0;38.20475;0;13.99736;LookingFor;cell38-14
656;agent0;38.03197;0;13.56918;LookingFor;cell38-12
657;agent0;37.71816;0;13.18357;Goal4;cell38-12
658;agent0;37.66518;0;12.76839;Goal4;cell36-12
659;agent0;37.64599;0;12.35767;Goal4;cell36-12
660;agent0;37.64634;0;11.79786;Goal4;cell36-12
661;agent0;38.00537;0;11.48553;LookingFor;cell36-10
662;agent0;38.02808;0;10.98243;LookingFor;cell38-10
663;agent0;37.90877;0;10.48765;LookingFor;cell38-10
664;agent0;37.77208;0;10.01793;LookingFor;cell36-10
665;agent0;37.5919;0;9.729802;LookingFor;cell36-10
666;agent0;37.32805;0;9.300092;LookingFor;cell36-8
667;agent0;36.94699;0;8.938362;LookingFor;cell36-8
668;agent0;36.69229;0;8.534469;LookingFor;cell36-8
669;agent0;36.57284;0;8.035005;LookingFor;cell36-8
670;agent0;36.52045;0;7.605321;LookingFor;cell36-8
671;agent0;36.41755;0;7.195574;LookingFor;cell36-6
672;agent0;36.2471;0;6.821868;LookingFor;cell36-6
673;agent0;36.17207;0;6.332901;LookingFor;cell36-6
674;agent0;35.97622;0;5.736725;LookingFor;cell36-6
675;agent0;35.89592;0;5.242099;LookingFor;cell34-4
676;agent0;35.80665;0;4.760774;LookingFor;cell34-4
677;agent0;35.70335;0;4.283243;LookingFor;cell34-4
678;agent0;35.45188;0;3.952024;LookingFor;cell34-4
679;agent0;35.11316;0;3.58662;LookingFor;cell34-2
680;agent0;34.88873;0;3.151146;LookingFor;cell34-2
681;agent0;34.76154;0;2.556179;LookingFor;cell34-2
682;agent0;34.78917;0;2.163647;LookingFor;cell34-2
683;agent0;34.80742;0;2.583793;LookingFor;cell34-2
684;agent0;34.77384;0;3.067783;LookingFor;cell34-2
685;agent0;34.76434;0;3.552848;LookingFor;cell34-2
686;agent0;34.70543;0;4.066295;LookingFor;cell34-2
687;agent0;34.70615;0;4.462405;LookingFor;cell34-4
688;agent0;34.73426;0;4.888706;LookingFor;cell34-4
689;agent0;34.64347;0;5.349896;LookingFor;cell34-4
690;agent0;34.48184;0;5.90801;LookingFor;cell34-4
691;agent0;34.35318;0;6.350407;LookingFor;cell34-4
692;agent0;34.23441;0;6.803504;LookingFor;cell34-6
693;agent0;34.09494;0;7.186899;LookingFor;cell34-6
694;agent0;33.8891;0;7.692082;LookingFor;cell34-6
695;agent0;33.73111;0;8.224137;LookingFor;cell32-6
696;agent0;33.66891;0;8.691319;LookingFor;cell32-8
697;agent0;33.62759;0;9.137113;LookingFor;cell32-8
698;agent0;33.63395;0;9.710006;LookingFor;cell32-8
699;agent0;33.63879;0;10.26238;LookingFor;cell32-8
700;agent0;33.6809;0;10.78306;LookingFor;cell32-10
701;agent0;33.71018;0;11.27692;LookingFor;cell32-10
702;agent0;33.69851;0;11.75092;LookingFor;cell32-10
703;agent0;33.7331;0;12.27846;LookingFor;cell32-10
704;agent0;33.76689;0;12.90409;LookingFor;cell32-12
705;agent0;33.67819;0;13.4421;LookingFor;cell32-12
706;agent0;33.73054;0;13.95678;LookingFor;cell32-12
707;agent0;33.69399;0;14.50606;LookingFor;cell32-12
708;agent0;33.68055;0;15.01086;LookingFor;cell32-14
709;agent0;33.65912;0;15.51364;LookingFor;cell32-14
710;agent0;33.59856;0;16.00923;LookingFor;cell32-14
711;agent0;33.68052;0;16.51876;LookingFor;cell32-16
712;agent0;33.69674;0;17.06076;LookingFor;cell32-16
713;agent0;33.69675;0;17.62432;LookingFor;cell32-16
714;agent0;33.63012;0;18.10015;LookingFor;cell32-16
715;agent0;33.55303;0;18.61399;LookingFor;cell32-18
716;agent0;33.56768;0;19.11686;LookingFor;cell32-18
717;agent0;33.61921;0;19.67972;LookingFor;cell32-18
718;agent0;33.74341;0;20.22379;LookingFor;cell32-18
719;agent0;33.71931;0;20.63575;LookingFor;cell32-20
720;agent0;33.76258;0;21.09926;LookingFor;cell32-20
721;agent0;33.72065;0;21.66288;LookingFor;cell32-20
722;agent0;33.67946;0;22.17991;LookingFor;cell32-20
723;agent0;33.68161;0;22.69135;LookingFor;cell32-22
724;agent0;33.67793;0;23.19856;LookingFor;cell32-22
725;agent0;33.72207;0;23.72336;LookingFor;cell32-22
726;agent0;33.81275;0;24.15566;LookingFor;cell32-22
727;agent0;33.82677;0;24.62907;LookingFor;cell32-24
728;agent0;33.70178;0;25.12876;LookingFor;cell32-24
729;agent0;33.64703;0;25.68993;LookingFor;cell32-24
730;agent0;33.64029;0;26.1876;LookingFor;cell32-24
731;agent0;33.66616;0;26.74942;LookingFor;cell32-26
732;agent0;33.69229;0;27.20197;LookingFor;cell32-26
733;agent0;33.68632;0;27.67729;LookingFor;cell32-26
734;agent0;33.72309;0;28.18973;LookingFor;cell32-26
735;agent0;33.75048;0;28.67021;LookingFor;cell32-28
736;agent0;33.6953;0;29.22561;LookingFor;cell32-28
737;agent0;33.6736;0;29.73526;LookingFor;cell32-28
738;agent0;33.71599;0;30.24351;LookingFor;cell32-28
739;agent0;33.74349;0;30.75425;LookingFor;cell32-30
740;agent0;33.77489;0;31.29203;LookingFor;cell32-30
741;agent0;33.72427;0;31.81867;LookingFor;cell32-30
742;agent0;33.70752;0;32.34272;LookingFor;cell32-30
743;agent0;33.75321;0;32.91534;LookingFor;cell32-32
744;agent0;33.7813;0;33.44072;LookingFor;cell32-32
745;agent0;33.75542;0;33.87524;LookingFor;cell32-32
746;agent0;33.72041;0;34.37828;LookingFor;cell32-32
747;agent0;33.71736;0;34.86811;LookingFor;cell32-34
748;agent0;33.82213;0;35.3981;LookingFor;cell32-34
749;agent0;33.79749;0;35.92902;LookingFor;cell32-34
750;agent0;33.76355;0;36.45782;LookingFor;cell32-34
751;agent0;33.73439;0;36.89584;LookingFor;cell32-36
752;agent0;33.6794;0;37.3711;LookingFor;cell32-36
753;agent0;33.76859;0;37.97843;LookingFor;cell32-36
754;agent0;33.85224;0;38.49788;LookingFor;cell32-36
755;agent0;33.94371;0;38.99444;LookingFor;cell32-38
756;agent0;33.931;0;39.48178;LookingFor;cell32-38
757;agent0;33.9347;0;39.96171;LookingFor;cell32-38
758;agent0;34.12371;0;40.39661;LookingFor;cell32-38
759;agent0;34.29469;0;40.82052;LookingFor;cell34-40
760;agent0;34.34595;0;41.1558;LookingFor;cell34-40
761;agent0;34.43621;0;41.60702;LookingFor;cell34-40
762;agent0;34.50095;0;42.06384;LookingFor;cell34-40
763;agent0;34.59944;0;42.54643;LookingFor;cell34-42
764;agent0;34.89666;0;43.07385;LookingFor;cell34-42
765;agent0;35.04908;0;43.49569;LookingFor;cell34-42
766;agent0;35.18488;0;43.86601;LookingFor;cell34-42
767;agent0;35.28106;0;44.29073;LookingFor;cell34-42
768;agent0;35.28785;0;44.89908;LookingFor;cell34-44
769;agent0;35.41164;0;45.3749;LookingFor;cell34-44
770;agent0;35.61072;0;45.77015;LookingFor;cell34-44
771;agent0;35.83487;0;46.24286;LookingFor;cell34-44
772;agent0;35.87329;0;46.68536;LookingFor;cell34-46
773;agent0;36.04254;0;47.14313;LookingFor;cell34-46
774;agent0;36.21317;0;47.64758;LookingFor;cell36-46
775;agent0;36.51184;0;48.02036;LookingFor;cell36-46
776;agent0;36.74339;0;48.51634;LookingFor;cell36-48
777;agent0;36.88569;0;48.84755;LookingFor;cell36-48
778;agent0;37.00337;0;49.19562;LookingFor;cell36-48
779;agent0;37.14034;0;49.64616;LookingFor;cell36-48
780;agent0;37.35804;0;50.15074;LookingFor;cell36-48
781;agent0;37.10954;0;50.54542;LookingFor;cell36-50
782;agent0;36.86749;0;50.96831;LookingFor;cell36-50
783;agent0;36.70548;0;51.42744;LookingFor;cell36-50
784;agent0;36.48529;0;51.89568;LookingFor;cell36-50
785;agent0;36.16272;0;52.35898;LookingFor;cell36-50
786;agent0;35.98582;0;52.68622;LookingFor;cell36-52
787;agent0;35.84921;0;53.11659;LookingFor;cell34-52
788;agent0;35.81573;0;53.55162;LookingFor;cell34-52
789;agent0;35.76314;0;54.04163;LookingFor;cell34-52
790;agent0;35.70627;0;54.51287;LookingFor;cell34-54
791;agent0;35.72954;0;54.79823;LookingFor;cell34-54
792;agent0;35.90931;0;55.18865;LookingFor;cell34-54
793;agent0;35.96773;0;55.63275;LookingFor;cell34-54
794;agent0;35.90144;0;56.20841;LookingFor;cell34-54
795;agent0;35.93939;0;56.65919;LookingFor;cell34-56
796;agent0;35.90286;0;57.13165;LookingFor;cell34-56
797;agent0;35.82391;0;57.62131;LookingFor;cell34-56
798;agent0;35.79347;0;58.11418;LookingFor;cell34-56
799;agent0;35.67035;0;58.52008;LookingFor;cell34-58
800;agent0;35.56558;0;58.89872;LookingFor;cell34-58
801;agent0;35.48934;0;59.28674;LookingFor;cell34-58
802;agent0;35.46368;0;59.81213;LookingFor;cell34-58
803;agent0;35.37861;0;60.23104;LookingFor;cell34-58
804;agent0;35.28976;0;60.81102;LookingFor;cell34-60
805;agent0;35.22158;0;61.29572;LookingFor;cell34-60
806;agent0;35.13085;0;61.71589;LookingFor;cell34-60
807;agent0;35.05806;0;62.14894;LookingFor;cell34-60
808;agent0;34.94316;0;62.6825;LookingFor;cell34-62
809;agent0;34.68908;0;63.09918;LookingFor;cell34-62
810;agent0;34.40926;0;63.43279;LookingFor;cell34-62
811;agent0;34.05468;0;63.81181;LookingFor;cell34-62
812;agent0;33.94905;0;64.27034;LookingFor;cell34-62
813;agent0;33.94792;0;64.81323;LookingFor;cell32-64
814;agent0;33.98057;0;65.36738;LookingFor;cell32-64
815;agent0;33.93724;0;65.96249;LookingFor;cell32-64
816;agent0;33.88937;0;66.54302;LookingFor;cell32-64
817;agent0;33.92817;0;67.1795;LookingFor;cell32-66
818;agent0;33.95839;0;67.72469;LookingFor;cell32-66
819;agent0;33.93272;0;68.25204;LookingFor;cell32-66
820;agent0;33.98011;0;68.8014;LookingFor;cell32-68
821;agent0;33.96073;0;69.31665;LookingFor;cell32-68
822;agent0;33.94206;0;69.86164;LookingFor;cell32-68
823;agent0;33.95318;0;70.43026;LookingFor;cell32-68
824;agent0;33.89832;0;70.97987;LookingFor;cell32-70
825;agent0;33.9255;0;71.52587;LookingFor;cell32-70
826;agent0;33.88432;0;72.03083;LookingFor;cell32-70
827;agent0;33.88361;0;72.60007;LookingFor;cell32-72
828;agent0;33.93601;0;73.17521;LookingFor;cell32-72
829;agent0;33.94742;0;73.66547;LookingFor;cell32-72
830;agent0;33.91726;0;73.99802;LookingFor;cell32-72
831;agent0;33.88439;0;74.50417;LookingFor;cell32-72
832;agent0;33.71436;0;75.01703;LookingFor;cell32-74
833;agent0;33.23703;0;75.25404;LookingFor;cell32-74
834;agent0;32.73356;0;75.51598;LookingFor;cell32-74
835;agent0;32.17674;0;75.5961;LookingFor;cell32-74
836;agent0;31.69689;0;75.67228;LookingFor;cell32-74
837;agent0;31.21247;0;75.74362;LookingFor;cell30-74
838;agent0;30.73553;0;75.79019;LookingFor;cell30-74
839;agent0;30.26666;0;75.82549;LookingFor;cell30-74
840;agent0;29.83943;0;75.88482;LookingFor;cell30-74
841;agent0;29.35076;0;75.92257;LookingFor;cell28-74
842;agent0;28.89218;0;75.95292;LookingFor;cell28-74
843;agent0;28.32071;0;75.99964;LookingFor;cell28-74
844;agent0;27.88805;0;76.01289;LookingFor;cell28-74
845;agent0;27.40851;0;76.08616;LookingFor;cell26-76
846;agent0;26.87896;0;76.13099;LookingFor;cell26-76
847;agent0;26.39037;0;76.15271;LookingFor;cell26-76
848;agent0;25.91146;0;76.11314;LookingFor;cell26-76
849;agent0;25.46481;0;76.05119;LookingFor;cell24-76
850;agent0;25.03732;0;75.99408;LookingFor;cell24-76
851;agent0;24.54235;0;76.04127;LookingFor;cell24-74
852;agent0;24.09699;0;76.11221;LookingFor;cell24-76
853;agent0;23.61929;0;76.13467;LookingFor;cell24-76
854;agent0;23.20592;0;76.0592;LookingFor;cell22-76
855;agent0;22.74684;0;76.07198;LookingFor;cell22-76
856;agent0;22.24527;0;76.15443;LookingFor;cell22-76
857;agent0;21.75341;0;76.21547;LookingFor;cell22-76
858;agent0;21.29835;0;76.20697;LookingFor;cell20-76
859;agent0;20.81907;0;76.21323;LookingFor;cell20-76
860;agent0;20.43089;0;76.18667;LookingFor;cell20-76
861;agent0;19.90007;0;76.17593;LookingFor;cell20-76
862;agent0;19.48637;0;76.24885;LookingFor;cell18-76
863;agent0;18.94586;0;76.28054;LookingFor;cell18-76
864;agent0;18.46311;0;76.18436;LookingFor;cell18-76
865;agent0;18.04128;0;76.14683;LookingFor;cell18-76
866;agent0;17.56683;0;76.13306;LookingFor;cell18-76
867;agent0;17.08639;0;76.19704;LookingFor;cell16-76
868;agent0;16.61162;0;76.23659;LookingFor;cell16-76
869;agent0;16.20687;0;76.20636;LookingFor;cell16-76
870;agent0;15.70555;0;76.16073;LookingFor;cell16-76
871;agent0;15.21569;0;76.16466;LookingFor;cell14-76
872;agent0;14.76052;0;76.13099;LookingFor;cell14-76
873;agent0;14.23558;0;76.15053;LookingFor;cell14-76
874;agent0;13.76871;0;76.19834;LookingFor;cell14-76
875;agent0;13.27951;0;76.186;LookingFor;cell12-76
876;agent0;12.82968;0;76.10333;LookingFor;cell12-76
877;agent0;12.31498;0;75.98101;LookingFor;cell12-76
878;agent0;12.79;0;75.91843;LookingFor;cell12-74
879;agent0;13.2611;0;75.92749;LookingFor;cell12-74
880;agent0;13.79313;0;75.98148;LookingFor;cell12-74
881;agent0;14.22429;0;76.04475;LookingFor;cell12-74
882;agent0;14.69623;0;76.03983;LookingFor;cell14-76
883;agent0;15.242;0;75.99255;LookingFor;cell14-76
884;agent0;15.67694;0;75.93935;LookingFor;cell14-74
885;agent0;16.13066;0;75.97867;LookingFor;cell14-74
886;agent0;16.6471;0;76.04095;LookingFor;cell16-74
887;agent0;17.13813;0;76.06612;LookingFor;cell16-76
888;agent0;17.52452;0;76.11503;LookingFor;cell16-76
889;agent0;17.96609;0;76.04337;LookingFor;cell16-76
890;agent0;18.48852;0;75.98058;LookingFor;cell16-76
891;agent0;18.92885;0;75.87852;LookingFor;cell18-74
892;agent0;19.37115;0;75.87358;LookingFor;cell18-74
893;agent0;19.81796;0;75.90599;LookingFor;cell18-74
894;agent0;20.30909;0;75.92365;LookingFor;cell18-74
895;agent0;20.80659;0;75.84545;LookingFor;cell20-74
896;agent0;21.21642;0;75.79632;LookingFor;cell20-74
897;agent0;21.7412;0;75.72452;LookingFor;cell20-74
898;agent0;22.25702;0;75.74103;LookingFor;cell20-74
899;agent0;22.68509;0;75.74905;LookingFor;cell22-74
900;agent0;23.19195;0;75.68204;LookingFor;cell22-74
901;agent0;23.64475;0;75.61124;LookingFor;cell22-74
902;agent0;24.09711;0;75.68164;LookingFor;cell22-74
903;agent0;24.57775;0;75.73418;LookingFor;cell24-74
904;agent0;25.04231;0;75.69851;LookingFor;cell24-74
905;agent0;25.54377;0;75.64748;LookingFor;cell24-74
906;agent0;26.05741;0;75.65649;LookingFor;cell24-74
907;agent0;26.52175;0;75.65141;LookingFor;cell26-74
908;agent0;26.98581;0;75.66078;LookingFor;cell26-74
909;agent0;27.42358;0;75.63532;LookingFor;cell26-74
910;agent0;27.94807;0;75.66947;LookingFor;cell26-74
911;agent0;28.37262;0;75.75861;LookingFor;cell26-74
912;agent0;28.84919;0;75.69933;LookingFor;cell28-74
913;agent0;29.28675;0;75.62125;LookingFor;cell28-74
914;agent0;29.72711;0;75.56035;LookingFor;cell28-74
915;agent0;30.29944;0;75.61478;LookingFor;cell28-74
916;agent0;30.77774;0;75.58514;LookingFor;cell30-74
917;agent0;31.27428;0;75.58086;LookingFor;cell30-74
918;agent0;31.7764;0;75.5491;LookingFor;cell30-74
919;agent0;32.20881;0;75.45081;LookingFor;cell30-74
920;agent0;32.67072;0;75.45129;LookingFor;cell32-74
921;agent0;33.11461;0;75.39455;LookingFor;cell32-74
922;agent0;33.47926;0;75.24947;LookingFor;cell32-74
923;agent0;33.71577;0;74.89776;LookingFor;cell32-74
924;agent0;33.83369;0;74.53632;LookingFor;cell32-74
925;agent0;33.92768;0;73.88682;LookingFor;cell32-74
926;agent0;33.94454;0;73.31068;LookingFor;cell32-72
927;agent0;33.96993;0;72.79771;LookingFor;cell32-72
928;agent0;33.93238;0;72.27284;LookingFor;cell32-72
929;agent0;33.89;0;71.68021;LookingFor;cell32-72
930;agent0;33.9295;0;71.13352;LookingFor;cell32-70
931;agent0;33.91461;0;70.58653;LookingFor;cell32-70
932;agent0;33.93035;0;70.0369;LookingFor;cell32-70
933;agent0;33.98141;0;69.48003;LookingFor;cell32-70
934;agent0;33.9822;0;68.90032;LookingFor;cell32-68
935;agent0;33.9752;0;68.32899;LookingFor;cell32-68
936;agent0;33.94946;0;67.77114;LookingFor;cell32-68
937;agent0;33.98562;0;67.20354;LookingFor;cell32-66
938;agent0;33.94081;0;66.73167;LookingFor;cell32-66
939;agent0;33.89034;0;66.17535;LookingFor;cell32-66
940;agent0;33.92117;0;65.645;LookingFor;cell32-66
941;agent0;33.95762;0;65.06932;LookingFor;cell32-64
942;agent0;33.92803;0;64.5098;LookingFor;cell32-64
943;agent0;33.9208;0;63.95187;LookingFor;cell32-64
944;agent0;33.92479;0;63.32901;LookingFor;cell32-62
945;agent0;34.01593;0;62.74531;LookingFor;cell32-62
946;agent0;33.96516;0;62.26242;LookingFor;cell34-62
947;agent0;33.92641;0;61.7118;LookingFor;cell32-62
948;agent0;33.92506;0;61.15393;LookingFor;cell32-60
949;agent0;33.89002;0;60.60696;LookingFor;cell32-60
950;agent0;33.92179;0;60.00902;LookingFor;cell32-60
951;agent0;33.94925;0;59.51662;LookingFor;cell32-60
952;agent0;33.93464;0;58.96259;LookingFor;cell32-58
953;agent0;33.9125;0;58.39249;LookingFor;cell32-58
954;agent0;33.90926;0;57.82228;LookingFor;cell32-58
955;agent0;33.85489;0;57.25353;LookingFor;cell32-56
956;agent0;33.84605;0;56.67837;LookingFor;cell32-56
957;agent0;33.93655;0;56.10962;LookingFor;cell32-56
958;agent0;33.98778;0;55.56556;LookingFor;cell32-56
959;agent0;33.97087;0;54.98088;LookingFor;cell32-54
960;agent0;33.97093;0;54.46636;LookingFor;cell32-54
961;agent0;33.98591;0;53.95602;LookingFor;cell32-54
962;agent0;34.01404;0;53.53609;LookingFor;cell32-52
963;agent0;34.02253;0;52.97274;LookingFor;cell34-52
964;agent0;34.00517;0;52.44157;LookingFor;cell34-52
965;agent0;33.99031;0;51.86652;LookingFor;cell34-52
966;agent0;33.96886;0;51.38297;LookingFor;cell32-50
967;agent0;33.9459;0;50.81206;LookingFor;cell32-50
968;agent0;33.98827;0;50.20184;LookingFor;cell32-50
969;agent0;33.97886;0;49.65259;LookingFor;cell32-50
970;agent0;34.03365;0;49.13122;LookingFor;cell32-48
971;agent0;33.96502;0;48.61222;LookingFor;cell34-48
972;agent0;33.93991;0;48.20581;LookingFor;cell32-48
973;agent0;33.95133;0;47.78883;LookingFor;cell32-48
974;agent0;33.94125;0;47.27808;LookingFor;cell32-46
975;agent0;33.74699;0;46.69017;LookingFor;cell32-46
976;agent0;33.50002;0;46.22142;LookingFor;cell32-46
977;agent0;33.25747;0;45.89968;LookingFor;cell32-46
978;agent0;33.00721;0;45.68384;LookingFor;cell32-44
979;agent0;32.8901;0;45.35572;LookingFor;cell32-44
980;agent0;32.71416;0;44.88912;LookingFor;cell32-44
981;agent0;32.66597;0;44.53211;LookingFor;cell32-44
982;agent0;32.63458;0;44.03265;LookingFor;cell32-44
983;agent0;32.54016;0;43.56443;LookingFor;cell32-44
984;agent0;32.24502;0;43.16358;LookingFor;cell32-42
985;agent0;31.85148;0;42.97601;LookingFor;cell32-42
986;agent0;31.32357;0;42.72849;LookingFor;cell30-42
987;agent0;30.82315;0;42.53156;LookingFor;cell30-42
988;agent0;30.32479;0;42.41775;LookingFor;cell30-42
989;agent0;29.83669;0;42.33923;LookingFor;cell30-42
990;agent0;29.40002;0;42.19704;LookingFor;cell28-42
991;agent0;28.95508;0;42.06345;LookingFor;cell28-42
992;agent0;28.3905;0;41.96045;LookingFor;cell28-42
993;agent0;27.87791;0;41.83851;LookingFor;cell28-40
994;agent0;27.4993;0;41.81509;LookingFor;cell26-40
995;agent0;27.11701;0;41.84332;LookingFor;cell26-40
996;agent0;26.62573;0;41.85497;LookingFor;cell26-40
997;agent0;26.11289;0;41.85193;LookingFor;cell26-40
998;agent0;25.56744;0;41.82088;LookingFor;cell26-40
999;agent0;25.05787;0;41.79376;LookingFor;cell24-40
1000;agent0;24.59823;0;41.72795;LookingFor;cell24-40
1001;agent0;24.0632;0;41.70227;LookingFor;cell24-40
1002;agent0;23.55316;0;41.7339;LookingFor;cell24-40
1003;agent0;23.09049;0;41.79009;LookingFor;cell22-40
1004;agent0;22.55556;0;41.81257;LookingFor;cell22-40
1005;agent0;22.07596;0;41.77243;LookingFor;cell22-40
1006;agent0;21.61852;0;41.76445;LookingFor;cell22-40
1007;agent0;21.12071;0;41.80074;LookingFor;cell20-40
1008;agent0;20.60677;0;41.73975;LookingFor;cell20-40
1009;agent0;20.14097;0;41.68606;LookingFor;cell20-40
1010;agent0;19.64976;0;41.75499;LookingFor;cell20-40
1011;agent0;19.13609;0;41.81495;LookingFor;cell18-40
1012;agent0;18.67942;0;41.77517;LookingFor;cell18-40
1013;agent0;18.12418;0;41.7571;LookingFor;cell18-40
1014;agent0;17.60447;0;41.80287;LookingFor;cell18-40
1015;agent0;17.10402;0;41.86843;LookingFor;cell16-40
1016;agent0;16.65131;0;41.83829;LookingFor;cell16-40
1017;agent0;16.21438;0;41.85595;LookingFor;cell16-40
1018;agent0;15.76434;0;41.78068;LookingFor;cell16-40
1019;agent0;15.20627;0;41.67832;LookingFor;cell14-40
1020;agent0;14.71171;0;41.73859;LookingFor;cell14-40
1021;agent0;14.15709;0;41.954;LookingFor;cell14-40
1022;agent0;13.72146;0;42.06611;LookingFor;cell14-40
1023;agent0;13.30187;0;42.08209;LookingFor;cell12-42
1024;agent0;12.9007;0;42.12551;LookingFor;cell12-42
1025;agent0;12.49176;0;42.18593;LookingFor;cell12-42
1026;agent0;12.04028;0;42.29391;LookingFor;cell12-42
1027;agent0;12.47228;0;42.24823;LookingFor;cell12-42
1028;agent0;13.02435;0;42.17178;LookingFor;cell12-42
1029;agent0;13.48929;0;42.13328;LookingFor;cell12-42
1030;agent0;13.99933;0;42.12402;LookingFor;cell12-42
1031;agent0;14.38824;0;42.12442;LookingFor;cell12-42
1032;agent0;14.81372;0;41.95615;LookingFor;cell14-42
1033;agent0;15.24138;0;41.78039;LookingFor;cell14-40
1034;agent0;15.7727;0;41.66792;LookingFor;cell14-40
1035;agent0;16.27826;0;41.62152;LookingFor;cell14-40
1036;agent0;16.83294;0;41.71849;LookingFor;cell16-40
1037;agent0;17.33795;0;41.80763;LookingFor;cell16-40
1038;agent0;17.83694;0;41.78649;LookingFor;cell16-40
1039;agent0;18.26707;0;41.73803;LookingFor;cell16-40
1040;agent0;18.80729;0;41.72018;LookingFor;cell18-40
1041;agent0;19.30208;0;41.72163;LookingFor;cell18-40
1042;agent0;19.79526;0;41.72119;LookingFor;cell18-40
1043;agent0;20.35461;0;41.74753;LookingFor;cell18-40
1044;agent0;20.78939;0;41.69648;LookingFor;cell20-40
1045;agent0;21.25664;0;41.70137;LookingFor;cell20-40
1046;agent0;21.76314;0;41.75845;LookingFor;cell20-40
1047;agent0;22.28551;0;41.80075;LookingFor;cell20-40
1048;agent0;22.74364;0;41.77985;LookingFor;cell22-40
1049;agent0;23.31211;0;41.69953;LookingFor;cell22-40
1050;agent0;23.845;0;41.75834;LookingFor;cell22-40
1051;agent0;24.30441;0;41.74087;LookingFor;cell22-40
1052;agent0;24.8001;0;41.73843;LookingFor;cell24-40
1053;agent0;25.33158;0;41.72474;LookingFor;cell24-40
1054;agent0;25.8505;0;41.80875;LookingFor;cell24-40
1055;agent0;26.31625;0;41.79848;LookingFor;cell24-40
1056;agent0;26.751;0;41.80158;LookingFor;cell26-40
1057;agent0;27.30731;0;41.8807;LookingFor;cell26-40
1058;agent0;27.89373;0;41.89145;LookingFor;cell26-40
1059;agent0;28.27906;0;41.87161;LookingFor;cell26-40
1060;agent0;28.64434;0;41.87995;LookingFor;cell28-40
1061;agent0;29.21214;0;41.86205;LookingFor;cell28-40
1062;agent0;29.75847;0;41.89944;LookingFor;cell28-40
1063;agent0;30.2403;0;41.94475;LookingFor;cell28-40
1064;agent0;30.69221;0;41.97955;LookingFor;cell30-40
1065;agent0;31.20398;0;41.99842;LookingFor;cell30-40
1066;agent0;31.61386;0;41.98713;LookingFor;cell30-40
1067;agent0;31.91801;0;41.92836;LookingFor;cell30-40
1068;agent0;32.37225;0;42.00082;LookingFor;cell30-40
1069;agent0;32.8815;0;42.11227;LookingFor;cell32-42
1070;agent0;33.28255;0;42.23862;LookingFor;cell32-42
1071;agent0;33.69857;0;42.24103;LookingFor;cell32-42
1072;agent0;34.18556;0;42.2426;LookingFor;cell32-42
1073;agent0;34.61737;0;42.4059;LookingFor;cell34-42
1074;agent0;35.1085;0;42.60493;LookingFor;cell34-42
1075;agent0;35.519;0;42.83615;LookingFor;cell34-42
1076;agent0;35.9337;0;43.03458;LookingFor;cell34-42
1077;agent0;36.39365;0;43.09283;LookingFor;cell34-42
1078;agent0;36.90836;0;43.19462;LookingFor;cell36-42
1079;agent0;37.39786;0;43.25906;LookingFor;cell36-42
1080;agent0;37.87908;0;43.50445;LookingFor;cell36-42
1081;agent0;38.21154;0;43.69847;LookingFor;cell36-42
1082;agent0;38.61473;0;43.76661;LookingFor;cell38-42
1083;agent0;39.18433;0;43.81601;LookingFor;cell38-42
1084;agent0;39.66153;0;43.9768;LookingFor;cell38-42
1085;agent0;40.0554;0;44.13329;LookingFor;cell38-42
1086;agent0;40.55178;0;44.25322;LookingFor;cell40-44
1087;agent0;41.03812;0;44.46894;LookingFor;cell40-44
1088;agent0;41.44474;0;44.52506;LookingFor;cell40-44
1089;agent0;41.81963;0;44.59837;LookingFor;cell40-44
1090;agent0;42.16048;0;44.83598;LookingFor;cell40-44
1091;agent0;42.71913;0;45.14793;LookingFor;cell42-44
1092;agent0;43.27817;0;45.34702;LookingFor;cell42-44
1093;agent0;43.63703;0;45.53935;LookingFor;cell42-44
1094;agent0;44.06389;0;45.73491;LookingFor;cell42-44
1095;agent0;44.59377;0;45.91815;LookingFor;cell44-44
1096;agent0;45.07602;0;46.05696;LookingFor;cell44-44
1097;agent0;45.62228;0;46.08974;LookingFor;cell44-46
1098;agent0;46.10787;0;46.2303;LookingFor;cell44-46
1099;agent0;46.63999;0;46.30161;LookingFor;cell46-46
1100;agent0;47.10812;0;46.35063;LookingFor;cell46-46
1101;agent0;47.57636;0;46.30463;LookingFor;cell46-46
1102;agent0;48.04598;0;46.22073;LookingFor;cell46-46
1103;agent0;48.64102;0;46.22844;LookingFor;cell48-46
1104;agent0;49.11844;0;46.27914;LookingFor;cell48-46
1105;agent0;49.5179;0;46.30659;LookingFor;cell48-46
1106;agent0;50.06272;0;46.37106;LookingFor;cell48-46
1107;agent0;50.58911;0;46.33723;LookingFor;cell50-46
1108;agent0;51.15176;0;46.29763;LookingFor;cell50-46
1109;agent0;51.63083;0;46.25377;LookingFor;cell50-46
1110;agent0;52.17271;0;46.19479;LookingFor;cell50-46
1111;agent0;52.70569;0;46.20966;LookingFor;cell52-46
1112;agent0;53.25962;0;46.22877;LookingFor;cell52-46
1113;agent0;53.76372;0;46.31445;LookingFor;cell52-46
1114;agent0;54.26704;0;46.30947;LookingFor;cell52-46
1115;agent0;54.74732;0;46.25159;LookingFor;cell54-46
1116;agent0;55.30599;0;46.35831;LookingFor;cell54-46
1117;agent0;55.88313;0;46.34685;LookingFor;cell54-46
1118;agent0;56.36042;0;46.30481;LookingFor;cell54-46
1119;agent0;56.87789;0;46.29793;LookingFor;cell56-46
1120;agent0;57.37326;0;46.22787;LookingFor;cell56-46
1121;agent0;57.90069;0;46.24904;LookingFor;cell56-46
1122;agent0;58.42581;0;46.34333;LookingFor;cell56-46
1123;agent0;58.91334;0;46.35049;LookingFor;cell58-46
1124;agent0;59.41721;0;46.30217;LookingFor;cell58-46
1125;agent0;59.86666;0;46.28651;LookingFor;cell58-46
1126;agent0;60.38224;0;46.27789;LookingFor;cell58-46
1127;agent0;60.94667;0;46.26986;LookingFor;cell60-46
1128;agent0;61.475;0;46.22299;LookingFor;cell60-46
1129;agent0;61.92851;0;46.29128;LookingFor;cell60-46
1130;agent0;62.36885;0;46.39629;LookingFor;cell60-46
1131;agent0;62.9141;0;46.38108;LookingFor;cell62-46
1132;agent0;63.48149;0;46.35199;LookingFor;cell62-46
1133;agent0;63.96273;0;46.26817;LookingFor;cell62-46
1134;agent0;64.50706;0;46.23964;LookingFor;cell62-46
1135;agent0;64.98623;0;46.28283;LookingFor;cell64-46
1136;agent0;65.52224;0;46.34057;LookingFor;cell64-46
1137;agent0;66.02444;0;46.43422;LookingFor;cell64-46
1138;agent0;66.54618;0;46.37694;LookingFor;cell66-46
1139;agent0;65.97851;0;46.29024;LookingFor;cell66-46
1140;agent0;65.56889;0;46.24182;LookingFor;cell64-46
1141;agent0;65.0222;0;46.21358;LookingFor;cell64-46
1142;agent0;64.54536;0;46.13662;LookingFor;cell64-46
1143;agent0;64.06768;0;46.1269;LookingFor;cell64-46
1144;agent0;63.54108;0;46.18522;LookingFor;cell64-46
1145;agent0;63.10666;0;46.21578;LookingFor;cell62-46
1146;agent0;62.58569;0;46.25022;LookingFor;cell62-46
1147;agent0;62.01943;0;46.28848;LookingFor;cell62-46
1148;agent0;61.47713;0;46.25889;LookingFor;cell62-46
1149;agent0;60.96136;0;46.21413;LookingFor;cell60-46
1150;agent0;60.48359;0;46.1785;LookingFor;cell60-46
1151;agent0;60.02073;0;46.07684;LookingFor;cell60-46
1152;agent0;59.49731;0;46.08361;LookingFor;cell60-46
1153;agent0;59.04321;0;46.12874;LookingFor;cell58-46
1154;agent0;58.56475;0;46.20259;LookingFor;cell58-46
1155;agent0;58.12168;0;46.22678;LookingFor;cell58-46
1156;agent0;57.59513;0;46.1944;LookingFor;cell58-46
1157;agent0;57.04103;0;46.16887;LookingFor;cell56-46
1158;agent0;56.51165;0;46.18724;LookingFor;cell56-46
1159;agent0;56.0038;0;46.19898;LookingFor;cell56-46
1160;agent0;55.48048;0;46.17898;LookingFor;cell56-46
1161;agent0;55.04416;0;46.20656;LookingFor;cell54-46
1162;agent0;54.50444;0;46.20892;LookingFor;cell54-46
1163;agent0;53.97183;0;46.20938;LookingFor;cell54-46
1164;agent0;53.45107;0;46.16101;LookingFor;cell52-46
1165;agent0;52.97159;0;46.1743;LookingFor;cell52-46
1166;agent0;52.50398;0;46.20457;LookingFor;cell52-46
1167;agent0;52.02864;0;46.17195;LookingFor;cell52-46
1168;agent0;51.48883;0;46.07128;LookingFor;cell52-46
1169;agent0;51.07343;0;46.08736;LookingFor;cell50-46
1170;agent0;50.62226;0;46.11156;LookingFor;cell50-46
1171;agent0;50.14715;0;46.17485;LookingFor;cell50-46
1172;agent0;49.63055;0;46.20561;LookingFor;cell50-46
1173;agent0;49.05144;0;46.25912;LookingFor;cell48-46
1174;agent0;48.58943;0;46.14424;LookingFor;cell48-46
1175;agent0;48.17696;0;46.06813;LookingFor;cell48-46
1176;agent0;47.73474;0;46.01731;LookingFor;cell48-46
1177;agent0;47.18789;0;45.93832;LookingFor;cell46-46
1178;agent0;46.77965;0;45.94234;LookingFor;cell46-44
1179;agent0;46.21913;0;45.95298;LookingFor;cell46-44
1180;agent0;45.70499;0;45.98944;LookingFor;cell46-44
1181;agent0;45.24518;0;45.93661;LookingFor;cell44-44
1182;agent0;44.73961;0;45.89182;LookingFor;cell44-44
1183;agent0;44.28638;0;45.81536;LookingFor;cell44-44
1184;agent0;43.78159;0;45.78385;LookingFor;cell44-44
1185;agent0;43.3161;0;45.67994;LookingFor;cell42-44
1186;agent0;42.92535;0;45.45389;LookingFor;cell42-44
1187;agent0;42.61472;0;45.16554;LookingFor;cell42-44
1188;agent0;42.31543;0;45.08371;LookingFor;cell42-44
1189;agent0;42.11523;0;44.91833;LookingFor;cell42-44
1190;agent0;41.63528;0;44.60586;LookingFor;cell42-44
1191;agent0;41.24029;0;44.25234;LookingFor;cell40-44
1192;agent0;41.01902;0;43.75752;LookingFor;cell40-44
1193;agent0;40.90333;0;43.43521;LookingFor;cell40-42
1194;agent0;40.70281;0;43.16222;LookingFor;cell40-42
1195;agent0;40.51913;0;42.93897;LookingFor;cell40-42
1196;agent0;40.20275;0;42.58029;LookingFor;cell40-42
1197;agent0;39.95448;0;42.10829;LookingFor;cell40-42
1198;agent0;39.75289;0;41.71856;LookingFor;cell38-42
1199;agent0;39.49822;0;41.21302;LookingFor;cell38-40
1200;agent0;39.26569;0;40.83636;LookingFor;cell38-40
1201;agent0;39.05754;0;40.55165;LookingFor;cell38-40
1202;agent0;38.78109;0;40.30901;LookingFor;cell38-40
1203;agent0;38.34047;0;39.90303;LookingFor;cell38-40
1204;agent0;38.07266;0;39.53542;LookingFor;cell38-38
1205;agent0;37.88655;0;39.17869;LookingFor;cell38-38
1206;agent0;37.93071;0;38.63638;LookingFor;cell36-38
1207;agent0;37.89524;0;38.09516;LookingFor;cell36-38
1208;agent0;37.88601;0;37.71996;LookingFor;cell36-38
1209;agent0;37.84818;0;37.42478;LookingFor;cell36-36
1210;agent0;37.74495;0;37.04091;LookingFor;cell36-36
1211;agent0;37.65317;0;36.3302;LookingFor;cell36-36
1212;agent0;37.53677;0;35.9306;LookingFor;cell36-36
1213;agent0;37.37105;0;35.50902;LookingFor;cell36-34
1214;agent0;37.38233;0;35.04535;LookingFor;cell36-34
1215;agent0;37.2325;0;34.51482;LookingFor;cell36-34
1216;agent0;37.10585;0;33.93301;LookingFor;cell36-34
1217;agent0;37.06047;0;33.61924;LookingFor;cell36-32
1218;agent0;36.99047;0;33.22865;LookingFor;cell36-32
1219;agent0;36.92918;0;32.65047;LookingFor;cell36-32
1220;agent0;36.85521;0;32.17191;LookingFor;cell36-32
1221;agent0;36.82912;0;31.76913;LookingFor;cell36-32
1222;agent0;36.76956;0;31.26547;LookingFor;cell36-30
1223;agent0;36.82404;0;30.71227;LookingFor;cell36-30
1224;agent0;36.90494;0;30.32418;LookingFor;cell36-30
1225;agent0;36.8979;0;29.8539;LookingFor;cell36-30
1226;agent0;36.75874;0;29.47268;LookingFor;cell36-28
1227;agent0;36.53283;0;28.92364;LookingFor;cell36-28
1228;agent0;36.45166;0;28.43069;LookingFor;cell36-28
1229;agent0;36.48909;0;28.12321;LookingFor;cell36-28
1230;agent0;36.53478;0;27.66666;LookingFor;cell36-28
1231;agent0;36.47394;0;27.08284;LookingFor;cell36-26
1232;agent0;36.45385;0;26.609;LookingFor;cell36-26
1233;agent0;36.44419;0;26.118;LookingFor;cell36-26
1234;agent0;36.33492;0;25.62854;LookingFor;cell36-26
1235;agent0;36.21632;0;25.22776;LookingFor;cell36-24
1236;agent0;36.1244;0;24.84446;LookingFor;cell36-24
1237;agent0;36.14041;0;24.42365;LookingFor;cell36-24
1238;agent0;36.16948;0;23.88612;LookingFor;cell36-24
1239;agent0;36.2168;0;23.41887;LookingFor;cell36-22
1240;agent0;36.17469;0;23.00039;LookingFor;cell36-22
1241;agent0;36.11777;0;22.55795;LookingFor;cell36-22
1242;agent0;35.97321;0;22.03323;LookingFor;cell36-22
1243;agent0;35.9467;0;21.51618;LookingFor;cell34-22
1244;agent0;35.94986;0;21.09859;LookingFor;cell34-20
1245;agent0;35.94096;0;20.70589;LookingFor;cell34-20
1246;agent0;35.79932;0;20.26956;LookingFor;cell34-20
1247;agent0;35.76051;0;19.71827;LookingFor;cell34-20
1248;agent0;35.69168;0;19.21229;LookingFor;cell34-18
1249;agent0;35.60466;0;18.81815;LookingFor;cell34-18
1250;agent0;35.61756;0;18.31862;LookingFor;cell34-18
1251;agent0;35.50202;0;17.80308;LookingFor;cell34-18
1252;agent0;35.5076;0;17.46564;LookingFor;cell34-16
1253;agent0;35.4557;0;16.93623;LookingFor;cell34-16
1254;agent0;35.45738;0;16.51212;LookingFor;cell34-16
1255;agent0;35.36938;0;16.05839;LookingFor;cell34-16
1256;agent0;35.23513;0;15.61072;LookingFor;cell34-16
1257;agent0;35.07142;0;15.15577;LookingFor;cell34-14
1258;agent0;34.95955;0;14.75051;LookingFor;cell34-14
1259;agent0;34.79827;0;14.30779;LookingFor;cell34-14
1260;agent0;34.60594;0;13.79097;LookingFor;cell34-14
1261;agent0;34.40589;0;13.38989;LookingFor;cell34-12
1262;agent0;34.03053;0;12.98771;LookingFor;cell34-12
1263;agent0;33.80907;0;12.61761;LookingFor;cell34-12
1264;agent0;33.74537;0;12.17967;LookingFor;cell32-12
1265;agent0;33.66973;0;11.56193;LookingFor;cell32-12
1266;agent0;33.71806;0;11.02453;LookingFor;cell32-10
1267;agent0;33.71858;0;10.46256;LookingFor;cell32-10
1268;agent0;33.69508;0;9.942593;LookingFor;cell32-10
1269;agent0;33.69065;0;9.522375;LookingFor;cell32-8
1270;agent0;33.67744;0;8.939104;LookingFor;cell32-8
1271;agent0;33.70131;0;8.362727;LookingFor;cell32-8
1272;agent0;33.81024;0;7.883923;LookingFor;cell32-8
1273;agent0;33.71272;0;8.438875;LookingFor;cell32-6
1274;agent0;33.66744;0;8.882668;LookingFor;cell32-8
1275;agent0;33.60749;0;9.387219;LookingFor;cell32-8
1276;agent0;33.62853;0;9.967178;LookingFor;cell32-8
1277;agent0;33.61993;0;10.47061;LookingFor;cell32-8
1278;agent0;33.70685;0;10.95672;LookingFor;cell32-10
1279;agent0;33.70342;0;11.53627;LookingFor;cell32-10
1280;agent0;33.68285;0;12.00254;LookingFor;cell32-10
1281;agent0;33.70392;0;12.61469;LookingFor;cell32-12
1282;agent0;33.7006;0;13.16316;LookingFor;cell32-12
1283;agent0;33.66528;0;13.67304;LookingFor;cell32-12
1284;agent0;33.6684;0;14.20387;LookingFor;cell32-12
1285;agent0;33.64608;0;14.76956;LookingFor;cell32-14
1286;agent0;33.62389;0;15.25616;LookingFor;cell32-14
1287;agent0;33.60847;0;15.77367;LookingFor;cell32-14
1288;agent0;33.62004;0;16.30309;LookingFor;cell32-14
1289;agent0;33.59092;0;16.86387;LookingFor;cell32-16
1290;agent0;33.62954;0;17.41177;LookingFor;cell32-16
1291;agent0;33.61684;0;17.9824;LookingFor;cell32-16
1292;agent0;33.53775;0;18.48967;LookingFor;cell32-16
1293;agent0;33.51505;0;19.01797;LookingFor;cell32-18
1294;agent0;33.58031;0;19.53492;LookingFor;cell32-18
1295;agent0;33.6504;0;20.09356;LookingFor;cell32-18
1296;agent0;33.68368;0;20.55123;LookingFor;cell32-20
1297;agent0;33.69693;0;21.0076;LookingFor;cell32-20
1298;agent0;33.64271;0;21.57194;LookingFor;cell32-20
1299;agent0;33.56001;0;22.12064;LookingFor;cell32-20
1300;agent0;33.5835;0;22.68313;LookingFor;cell32-22
1301;agent0;33.59361;0;23.19497;LookingFor;cell32-22
1302;agent0;33.72364;0;23.71933;LookingFor;cell32-22
1303;agent0;33.84323;0;24.149;LookingFor;cell32-22
1304;agent0;33.84415;0;24.62147;LookingFor;cell32-24
1305;agent0;33.77103;0;25.10476;LookingFor;cell32-24
1306;agent0;33.80727;0;25.59808;LookingFor;cell32-24
1307;agent0;33.84725;0;26.06265;LookingFor;cell32-24
1308;agent0;33.98479;0;26.62156;LookingFor;cell32-26
1309;agent0;34.07048;0;27.00791;LookingFor;cell32-26
1310;agent0;34.15302;0;27.36155;LookingFor;cell34-26
1311;agent0;34.23888;0;27.7778;LookingFor;cell34-26
1312;agent0;34.36926;0;28.25057;LookingFor;cell34-26
1313;agent0;34.54709;0;28.64088;LookingFor;cell34-28
1314;agent0;34.76282;0;29.1008;LookingFor;cell34-28
1315;agent0;34.89877;0;29.50638;LookingFor;cell34-28
1316;agent0;35.11526;0;29.93016;LookingFor;cell34-28
1317;agent0;35.32637;0;30.23469;LookingFor;cell34-28
1318;agent0;35.56663;0;30.62385;LookingFor;cell34-30
1319;agent0;35.85068;0;30.96983;LookingFor;cell34-30
1320;agent0;36.28151;0;31.25348;LookingFor;cell34-30
1321;agent0;36.75374;0;31.55278;LookingFor;cell36-30
1322;agent0;37.05738;0;31.79787;LookingFor;cell36-30
1323;agent0;37.46653;0;32.16509;LookingFor;cell36-30
1324;agent0;37.87088;0;32.36838;LookingFor;cell36-32
1325;agent0;38.24519;0;32.60336;LookingFor;cell36-32
1326;agent0;38.58855;0;32.91824;LookingFor;cell38-32
1327;agent0;39.03018;0;33.18048;LookingFor;cell38-32
1328;agent0;39.37726;0;33.52893;LookingFor;cell38-32
1329;agent0;39.21828;0;33.90336;LookingFor;cell38-32
1330;agent0;38.9839;0;34.37966;LookingFor;cell38-32
1331;agent0;38.81282;0;34.77277;LookingFor;cell38-34
1332;agent0;38.6589;0;35.05875;LookingFor;cell38-34
1333;agent0;38.48977;0;35.35657;LookingFor;cell38-34
1334;agent0;38.30729;0;35.80684;LookingFor;cell38-34
1335;agent0;37.9431;0;36.25209;LookingFor;cell38-34
1336;agent0;37.52203;0;36.42692;LookingFor;cell36-36
1337;agent0;37.16692;0;36.75481;LookingFor;cell36-36
1338;agent0;36.84651;0;37.15525;LookingFor;cell36-36
1339;agent0;36.52591;0;37.6083;LookingFor;cell36-36
1340;agent0;36.3751;0;37.97144;LookingFor;cell36-36
1341;agent0;36.10271;0;38.40091;LookingFor;cell36-36
1342;agent0;35.79183;0;38.85755;LookingFor;cell36-38
1343;agent0;35.61503;0;39.19628;LookingFor;cell34-38
1344;agent0;35.34124;0;39.51706;LookingFor;cell34-38
1345;agent0;34.99511;0;39.93734;LookingFor;cell34-38
1346;agent0;34.6921;0;40.35852;LookingFor;cell34-38
1347;agent0;34.37571;0;40.70972;LookingFor;cell34-40
1348;agent0;34.04616;0;41.01564;LookingFor;cell34-40
1349;agent0;33.69022;0;41.39115;LookingFor;cell34-40
1350;agent0;33.39352;0;41.82347;LookingFor;cell32-40
1351;agent0;33.15349;0;42.24335;LookingFor;cell32-40
1352;agent0;32.92673;0;42.67274;LookingFor;cell32-42
1353;agent0;32.73866;0;43.06313;LookingFor;cell32-42
1354;agent0;32.5354;0;43.48149;LookingFor;cell32-42
1355;agent0;32.48636;0;43.84098;LookingFor;cell32-42
1356;agent0;32.56435;0;44.23654;LookingFor;cell32-42
1357;agent0;32.37448;0;44.67342;LookingFor;cell32-44
1358;agent0;31.93884;0;44.92205;LookingFor;cell32-44
1359;agent0;31.44436;0;45.27411;LookingFor;cell30-44
1360;agent0;30.92815;0;45.42266;LookingFor;cell30-44
1361;agent0;30.42627;0;45.52934;LookingFor;cell30-44
1362;agent0;29.99003;0;45.61549;LookingFor;cell30-44
1363;agent0;29.62947;0;45.76435;LookingFor;cell28-44
1364;agent0;29.13708;0;45.94602;LookingFor;cell28-44
1365;agent0;28.64185;0;46.0886;LookingFor;cell28-44
1366;agent0;28.12468;0;46.22345;LookingFor;cell28-46
1367;agent0;27.65264;0;46.33668;LookingFor;cell28-46
1368;agent0;27.13132;0;46.33332;LookingFor;cell26-46
1369;agent0;26.66202;0;46.29048;LookingFor;cell26-46
1370;agent0;26.13495;0;46.34935;LookingFor;cell26-46
1371;agent0;25.62067;0;46.41548;LookingFor;cell26-46
1372;agent0;25.11833;0;46.40253;LookingFor;cell24-46
1373;agent0;24.61108;0;46.36404;LookingFor;cell24-46
1374;agent0;24.07368;0;46.31009;LookingFor;cell24-46
1375;agent0;23.51089;0;46.32509;LookingFor;cell24-46
1376;agent0;22.97234;0;46.35785;LookingFor;cell22-46
1377;agent0;22.50671;0;46.32312;LookingFor;cell22-46
1378;agent0;22.02053;0;46.20815;LookingFor;cell22-46
1379;agent0;21.52692;0;46.18052;LookingFor;cell22-46
1380;agent0;20.94984;0;46.20431;LookingFor;cell20-46
1381;agent0;20.46419;0;46.3166;LookingFor;cell20-46
1382;agent0;19.90885;0;46.33079;LookingFor;cell20-46
1383;agent0;19.41752;0;46.39023;LookingFor;cell18-46
1384;agent0;18.95145;0;46.38906;LookingFor;cell18-46
1385;agent0;18.35733;0;46.40075;LookingFor;cell18-46
1386;agent0;17.8434;0;46.38543;LookingFor;cell18-46
1387;agent0;18.33307;0;46.34462;LookingFor;cell16-46
1388;agent0;18.84382;0;46.31661;LookingFor;cell18-46
1389;agent0;19.35599;0;46.32796;LookingFor;cell18-46
1390;agent0;19.90863;0;46.34541;LookingFor;cell18-46
1391;agent0;20.46118;0;46.26635;LookingFor;cell18-46
1392;agent0;20.9157;0;46.19978;LookingFor;cell20-46
1393;agent0;21.4053;0;46.15209;LookingFor;cell20-46
1394;agent0;21.87366;0;46.03319;LookingFor;cell20-46
1395;agent0;22.33807;0;45.95776;LookingFor;cell20-46
1396;agent0;22.8606;0;46.03223;LookingFor;cell22-44
1397;agent0;23.33051;0;46.1034;LookingFor;cell22-46
1398;agent0;23.80322;0;46.15659;LookingFor;cell22-46
1399;agent0;24.26477;0;46.12498;LookingFor;cell22-46
1400;agent0;24.77302;0;46.08689;LookingFor;cell24-46
1401;agent0;25.27183;0;46.11099;LookingFor;cell24-46
1402;agent0;25.72175;0;46.19571;LookingFor;cell24-46
1403;agent0;26.26617;0;46.20181;LookingFor;cell24-46
1404;agent0;26.74476;0;46.16562;LookingFor;cell26-46
1405;agent0;27.21219;0;46.10568;LookingFor;cell26-46
1406;agent0;27.69101;0;46.13165;LookingFor;cell26-46
1407;agent0;28.20194;0;46.12092;LookingFor;cell26-46
1408;agent0;28.60265;0;46.04999;LookingFor;cell28-46
1409;agent0;28.98699;0;45.99029;LookingFor;cell28-46
1410;agent0;29.42749;0;45.9162;LookingFor;cell28-44
1411;agent0;29.97313;0;45.80812;LookingFor;cell28-44
1412;agent0;30.37793;0;45.7131;LookingFor;cell28-44
1413;agent0;30.73441;0;45.48849;LookingFor;cell30-44
1414;agent0;31.1406;0;45.3013;LookingFor;cell30-44
1415;agent0;31.55528;0;45.13235;LookingFor;cell30-44
1416;agent0;31.87244;0;45.04957;LookingFor;cell30-44
1417;agent0;32.08551;0;44.81603;LookingFor;cell30-44
1418;agent0;32.35416;0;44.55513;LookingFor;cell32-44
1419;agent0;32.54244;0;44.12058;LookingFor;cell32-44
1420;agent0;32.58728;0;43.67008;LookingFor;cell32-44
1421;agent0;32.26586;0;43.20321;LookingFor;cell32-42
1422;agent0;31.87303;0;43.03581;LookingFor;cell32-42
1423;agent0;31.37721;0;42.78971;LookingFor;cell30-42
1424;agent0;30.86667;0;42.5349;LookingFor;cell30-42
1425;agent0;30.36866;0;42.42735;LookingFor;cell30-42
1426;agent0;29.8647;0;42.33493;LookingFor;cell30-42
1427;agent0;29.4372;0;42.19157;LookingFor;cell28-42
1428;agent0;29.01914;0;42.10289;LookingFor;cell28-42
1429;agent0;28.52153;0;42.05518;LookingFor;cell28-42
1430;agent0;27.95938;0;41.92231;LookingFor;cell28-42
1431;agent0;27.55916;0;41.84611;LookingFor;cell26-40
1432;agent0;27.16522;0;41.8409;LookingFor;cell26-40
1433;agent0;26.64629;0;41.86411;LookingFor;cell26-40
1434;agent0;26.1154;0;41.84769;LookingFor;cell26-40
1435;agent0;25.56776;0;41.82074;LookingFor;cell26-40
1436;agent0;25.0579;0;41.79238;LookingFor;cell24-40
1437;agent0;24.59815;0;41.72652;LookingFor;cell24-40
1438;agent0;24.06335;0;41.7005;LookingFor;cell24-40
1439;agent0;23.5533;0;41.73205;LookingFor;cell24-40
1440;agent0;23.09023;0;41.78763;LookingFor;cell22-40
1441;agent0;22.55552;0;41.81058;LookingFor;cell22-40
1442;agent0;22.07618;0;41.77041;LookingFor;cell22-40
1443;agent0;21.61894;0;41.7617;LookingFor;cell22-40
1444;agent0;21.12031;0;41.79737;LookingFor;cell20-40
1445;agent0;20.60594;0;41.73624;LookingFor;cell20-40
1446;agent0;20.14041;0;41.68141;LookingFor;cell20-40
1447;agent0;19.6491;0;41.74927;LookingFor;cell20-40
1448;agent0;19.12148;0;41.79863;LookingFor;cell18-40
1449;agent0;18.65265;0;41.75621;LookingFor;cell18-40
1450;agent0;18.1089;0;41.73854;LookingFor;cell18-40
1451;agent0;17.60419;0;41.78131;LookingFor;cell18-40
1452;agent0;17.10453;0;41.86311;LookingFor;cell16-40
1453;agent0;16.6538;0;41.82322;LookingFor;cell16-40
1454;agent0;16.21165;0;41.82109;LookingFor;cell16-40
1455;agent0;15.75064;0;41.71642;LookingFor;cell16-40
1456;agent0;15.19715;0;41.66944;LookingFor;cell14-40
1457;agent0;14.70582;0;41.71149;LookingFor;cell14-40
1458;agent0;14.14702;0;41.87412;LookingFor;cell14-40
1459;agent0;13.67047;0;41.90765;LookingFor;cell14-40
1460;agent0;13.22633;0;41.88257;LookingFor;cell12-40
1461;agent0;12.81863;0;41.79422;LookingFor;cell12-40
1462;agent0;12.3875;0;41.76622;LookingFor;cell12-40
1463;agent0;11.87835;0;41.6771;LookingFor;cell12-40
1464;agent0;11.32339;0;41.73549;LookingFor;cell10-40
1465;agent0;10.86115;0;41.84107;LookingFor;cell10-40
1466;agent0;10.41439;0;41.80446;LookingFor;cell10-40
1467;agent0;9.885483;0;41.82103;LookingFor;cell10-40
1468;agent0;9.34965;0;41.81483;LookingFor;cell8-40
1469;agent0;8.873808;0;41.79204;LookingFor;cell8-40
1470;agent0;8.354328;0;41.80999;LookingFor;cell8-40
1471;agent0;7.878613;0;41.81939;LookingFor;cell8-40
1472;agent0;7.331186;0;41.84121;LookingFor;cell6-40
1473;agent0;6.857619;0;41.91611;LookingFor;cell6-40
1474;agent0;6.422101;0;41.95549;LookingFor;cell6-40
1475;agent0;5.991543;0;42.03315;LookingFor;cell6-40
1476;agent0;5.554906;0;42.07665;LookingFor;cell4-42
1477;agent0;5.054451;0;42.06569;LookingFor;cell4-42
1478;agent0;4.555599;0;42.04766;LookingFor;cell4-42
1479;agent0;4.116213;0;42.13263;LookingFor;cell4-42
1480;agent0;3.749629;0;42.28485;LookingFor;cell4-42
1481;agent0;4.241775;0;42.20947;LookingFor;cell2-42
1482;agent0;4.704157;0;42.10089;LookingFor;cell4-42
1483;agent0;5.141387;0;42.00141;LookingFor;cell4-42
1484;agent0;5.565238;0;41.88602;LookingFor;cell4-42
1485;agent0;6.064866;0;41.85337;LookingFor;cell4-40
1486;agent0;6.60597;0;41.89257;LookingFor;cell6-40
1487;agent0;7.10741;0;41.89041;LookingFor;cell6-40
1488;agent0;7.583263;0;41.83125;LookingFor;cell6-40
1489;agent0;8.049928;0;41.80525;LookingFor;cell6-40
1490;agent0;8.537672;0;41.82299;LookingFor;cell8-40
1491;agent0;9.018752;0;41.82219;LookingFor;cell8-40
1492;agent0;9.496189;0;41.80339;LookingFor;cell8-40
1493;agent0;9.927071;0;41.82003;LookingFor;cell8-40
1494;agent0;10.42171;0;41.83996;LookingFor;cell8-40
1495;agent0;10.97842;0;41.86229;LookingFor;cell10-40
1496;agent0;11.41667;0;41.85391;LookingFor;cell10-40
1497;agent0;11.85727;0;41.75365;LookingFor;cell10-40
1498;agent0;12.35874;0;41.7158;LookingFor;cell10-40
1499;agent0;12.91487;0;41.67631;LookingFor;cell12-40
1500;agent0;13.4285;0;41.71626;LookingFor;cell12-40
1501;agent0;13.94971;0;41.8301;LookingFor;cell12-40
1502;agent0;14.38605;0;41.9221;LookingFor;cell12-40
1503;agent0;14.84622;0;41.83462;LookingFor;cell14-40
1504;agent0;15.31054;0;41.73787;LookingFor;cell14-40
1505;agent0;15.82369;0;41.66472;LookingFor;cell14-40
1506;agent0;16.31436;0;41.65467;LookingFor;cell14-40
1507;agent0;16.86218;0;41.74433;LookingFor;cell16-40
1508;agent0;17.37449;0;41.80622;LookingFor;cell16-40
1509;agent0;17.85552;0;41.80165;LookingFor;cell16-40
1510;agent0;18.33274;0;41.76884;LookingFor;cell16-40
1511;agent0;18.84493;0;41.78183;LookingFor;cell18-40
1512;agent0;19.35922;0;41.78705;LookingFor;cell18-40
1513;agent0;19.85277;0;41.80077;LookingFor;cell18-40
1514;agent0;20.37534;0;41.79739;LookingFor;cell18-40
1515;agent0;20.81783;0;41.77798;LookingFor;cell20-40
1516;agent0;21.27817;0;41.75953;LookingFor;cell20-40
1517;agent0;21.79449;0;41.81717;LookingFor;cell20-40
1518;agent0;22.31314;0;41.85226;LookingFor;cell20-40
1519;agent0;22.78852;0;41.82462;LookingFor;cell22-40
1520;agent0;23.31626;0;41.7766;LookingFor;cell22-40
1521;agent0;23.85786;0;41.85506;LookingFor;cell22-40
1522;agent0;24.25774;0;41.84584;LookingFor;cell22-40
1523;agent0;24.76582;0;41.76884;LookingFor;cell24-40
1524;agent0;25.27757;0;41.75576;LookingFor;cell24-40
1525;agent0;25.77949;0;41.86246;LookingFor;cell24-40
1526;agent0;26.2441;0;41.90131;LookingFor;cell24-40
1527;agent0;26.64862;0;41.93998;LookingFor;cell26-40
1528;agent0;27.13558;0;42.02666;LookingFor;cell26-40
1529;agent0;27.75838;0;42.0456;LookingFor;cell26-42
1530;agent0;28.16208;0;42.01071;LookingFor;cell26-42
1531;agent0;28.53222;0;42.02771;LookingFor;cell28-42
1532;agent0;29.00571;0;42.10978;LookingFor;cell28-42
1533;agent0;29.52415;0;42.23096;LookingFor;cell28-42
1534;agent0;29.99879;0;42.3466;LookingFor;cell28-42
1535;agent0;30.43119;0;42.44808;LookingFor;cell28-42
1536;agent0;30.84367;0;42.61491;LookingFor;cell30-42
1537;agent0;31.20552;0;42.68206;LookingFor;cell30-42
1538;agent0;31.60315;0;42.76542;LookingFor;cell30-42
1539;agent0;31.9632;0;42.97549;LookingFor;cell30-42
1540;agent0;32.37278;0;43.27385;LookingFor;cell30-42
1541;agent0;32.67799;0;43.53327;LookingFor;cell32-42
1542;agent0;32.85476;0;43.94025;LookingFor;cell32-42
1543;agent0;33.05267;0;44.48771;LookingFor;cell32-42
1544;agent0;33.22488;0;44.88354;LookingFor;cell32-44
1545;agent0;33.37506;0;45.41549;LookingFor;cell32-44
1546;agent0;33.47511;0;45.99915;LookingFor;cell32-44
1547;agent0;33.50235;0;46.56103;LookingFor;cell32-44
1548;agent0;33.62083;0;46.83942;LookingFor;cell32-46
1549;agent0;33.72563;0;47.18879;LookingFor;cell32-46
1550;agent0;33.96818;0;47.7165;LookingFor;cell32-46
1551;agent0;34.04688;0;48.35815;LookingFor;cell32-46
1552;agent0;34.06816;0;48.92966;LookingFor;cell34-48
1553;agent0;34.15707;0;49.45201;LookingFor;cell34-48
1554;agent0;34.23474;0;49.94194;LookingFor;cell34-48
1555;agent0;34.19835;0;50.3112;LookingFor;cell34-48
1556;agent0;34.15062;0;50.74074;LookingFor;cell34-50
1557;agent0;34.13844;0;51.24715;LookingFor;cell34-50
1558;agent0;34.15152;0;51.75436;LookingFor;cell34-50
1559;agent0;34.15643;0;52.32574;LookingFor;cell34-50
1560;agent0;34.14072;0;52.79389;LookingFor;cell34-52
1561;agent0;34.22538;0;53.22787;LookingFor;cell34-52
1562;agent0;34.21027;0;53.75296;LookingFor;cell34-52
1563;agent0;34.27259;0;54.22579;LookingFor;cell34-52
1564;agent0;34.20505;0;54.7652;LookingFor;cell34-54
1565;agent0;34.12307;0;55.25582;LookingFor;cell34-54
1566;agent0;34.12797;0;55.78571;LookingFor;cell34-54
1567;agent0;34.07141;0;56.31954;LookingFor;cell34-54
1568;agent0;34.08486;0;56.79763;LookingFor;cell34-56
1569;agent0;34.05984;0;57.30865;LookingFor;cell34-56
1570;agent0;34.00169;0;57.79928;LookingFor;cell34-56
1571;agent0;34.06329;0;58.38972;LookingFor;cell34-56
1572;agent0;34.14997;0;58.84314;LookingFor;cell34-58
1573;agent0;34.17398;0;59.33421;LookingFor;cell34-58
1574;agent0;34.09692;0;59.89964;LookingFor;cell34-58
1575;agent0;34.09633;0;60.39663;LookingFor;cell34-58
1576;agent0;34.08336;0;60.88482;LookingFor;cell34-60
1577;agent0;34.15978;0;61.41549;LookingFor;cell34-60
1578;agent0;34.23549;0;61.88164;LookingFor;cell34-60
1579;agent0;34.27378;0;62.36497;LookingFor;cell34-60
1580;agent0;34.2399;0;62.88615;LookingFor;cell34-62
1581;agent0;34.25048;0;63.32954;LookingFor;cell34-62
1582;agent0;34.25638;0;63.79071;LookingFor;cell34-62
1583;agent0;34.26873;0;64.12146;LookingFor;cell34-62
1584;agent0;34.32056;0;64.50974;LookingFor;cell34-64
1585;agent0;34.40944;0;65.00382;LookingFor;cell34-64
1586;agent0;34.48504;0;65.41272;LookingFor;cell34-64
1587;agent0;34.51925;0;65.74678;LookingFor;cell34-64
1588;agent0;34.61803;0;66.10513;LookingFor;cell34-64
1589;agent0;34.77382;0;66.43679;LookingFor;cell34-66
1590;agent0;34.99273;0;66.87685;LookingFor;cell34-66
1591;agent0;35.18016;0;67.31119;LookingFor;cell34-66
1592;agent0;35.47219;0;67.64569;LookingFor;cell34-66
1593;agent0;35.74046;0;67.98027;LookingFor;cell34-66
1594;agent0;36.03814;0;68.45142;LookingFor;cell34-66
1595;agent0;36.32203;0;68.84521;LookingFor;cell36-68
1596;agent0;36.68445;0;69.20371;LookingFor;cell36-68
1597;agent0;36.95909;0;69.57171;LookingFor;cell36-68
1598;agent0;37.15835;0;70.07679;LookingFor;cell36-68
1599;agent0;37.40373;0;70.51936;LookingFor;cell36-70
1600;agent0;37.69492;0;70.86718;LookingFor;cell36-70
1601;agent0;38.0208;0;71.27665;LookingFor;cell36-70
1602;agent0;38.22041;0;71.73183;LookingFor;cell38-70
1603;agent0;38.47176;0;72.14561;LookingFor;cell38-70
1604;agent0;38.78737;0;72.46828;LookingFor;cell38-72
1605;agent0;39.0307;0;72.94042;LookingFor;cell38-72
1606;agent0;39.5328;0;73.25117;LookingFor;cell38-72
1607;agent0;39.93611;0;73.55282;LookingFor;cell38-72
1608;agent0;40.28976;0;73.87983;LookingFor;cell38-72
1609;agent0;40.42746;0;74.31395;LookingFor;cell40-72
1610;agent0;40.56644;0;74.68801;LookingFor;cell40-74
1611;agent0;40.78551;0;74.92744;Goal1;cell40-74
1612;agent0;40.468;0;75.12899;Goal1;cell40-74
1613;agent0;40.15672;0;75.25912;Goal1;cell40-74
1614;agent0;39.78777;0;75.56383;Goal1;cell40-74
1615;agent0;39.4812;0;75.88422;Goal1;cell38-74
1616;agent0;39.15785;0;76.21164;Goal1;cell38-74
1617;agent0;38.8647;0;76.48536;Goal1;cell38-76
1618;agent0;38.51468;0;76.9304;Goal1;cell38-76
1619;agent0;38.18815;0;77.33028;Goal1;cell38-76
1620;agent0;38.00071;0;77.63696;Goal1;cell38-76
1621;agent0;37.83548;0;78.07646;Goal1;cell38-76
1622;agent0;37.55133;0;78.32568;Goal1;cell36-78
1623;agent0;37.14005;0;78.72308;Goal1;cell36-78
1624;agent0;36.81093;0;79.10802;Goal1;cell36-78
1625;agent0;36.56813;0;79.50991;Goal1;cell36-78
1626;agent0;36.19629;0;79.84629;Goal1;cell36-78
1627;agent0;35.85076;0;80.19279;Goal1;cell36-78
1628;agent0;35.58778;0;80.43938;Goal1;cell34-80
1629;agent0;35.17549;0;80.64629;Goal1;cell34-80
1630;agent0;34.76877;0;81.0376;Goal1;cell34-80
1631;agent0;34.41064;0;81.34167;Goal1;cell34-80
1632;agent0;33.95218;0;81.63186;Goal1;cell34-80
1633;agent0;33.54778;0;81.85019;Goal1;cell32-80
1634;agent0;33.42878;0;82.31116;Goal1;cell32-80
1635;agent0;33.2784;0;82.73261;Goal1;cell32-82
1636;agent0;32.98989;0;83.00327;Goal1;cell32-82
1637;agent0;32.59392;0;83.33389;Goal1;cell32-82
1638;agent0;32.09948;0;83.50535;Goal1;cell32-82
1639;agent0;31.51309;0;83.57821;Goal1;cell32-82
1640;agent0;31.04034;0;83.6301;Goal1;cell30-82
1641;agent0;30.58787;0;83.61847;Goal1;cell30-82
1642;agent0;30.07;0;83.64642;Goal1;cell30-82
1643;agent0;29.59155;0;83.59249;Goal1;cell30-82
1644;agent0;29.10822;0;83.58155;Goal1;cell28-82
1645;agent0;28.55707;0;83.53834;Goal1;cell28-82
1646;agent0;28.04727;0;83.52435;Goal1;cell28-82
1647;agent0;27.50752;0;83.59344;Goal1;cell28-82
1648;agent0;27.02398;0;83.58382;Goal1;cell26-82
1649;agent0;26.49173;0;83.56262;Goal1;cell26-82
1650;agent0;25.96394;0;83.53968;Goal1;cell26-82
1651;agent0;25.49759;0;83.56223;Goal1;cell24-82
1652;agent0;25.07282;0;83.53752;Goal1;cell24-82
1653;agent0;24.46639;0;83.57662;Goal1;cell24-82
1654;agent0;23.94468;0;83.56753;Goal1;cell24-82
1655;agent0;23.51537;0;83.61325;Goal1;cell22-82
1656;agent0;23.04076;0;83.6552;Goal1;cell22-82
1657;agent0;22.54972;0;83.60789;Goal1;cell22-82
1658;agent0;22.0687;0;83.5995;Goal1;cell22-82
1659;agent0;21.58904;0;83.61448;Goal1;cell22-82
1660;agent0;21.1039;0;83.62484;Goal1;cell20-82
1661;agent0;20.63273;0;83.652;Goal1;cell20-82
1662;agent0;20.2301;0;83.66128;Goal1;cell20-82
1663;agent0;19.82905;0;83.5078;Goal1;cell20-82
1664;agent0;19.37383;0;83.53269;Goal1;cell18-82
1665;agent0;18.75449;0;83.56579;Goal1;cell18-82
1666;agent0;18.27627;0;83.59459;Goal1;cell18-82
1667;agent0;17.81791;0;83.64351;Goal1;cell18-82
1668;agent0;17.34394;0;83.72958;Goal1;cell16-82
1669;agent0;16.84817;0;83.7266;Goal1;cell16-82
1670;agent0;16.40378;0;83.64017;Goal1;cell16-82
1671;agent0;15.94282;0;83.62061;Goal1;cell16-82
1672;agent0;15.46784;0;83.68914;Goal1;cell14-82
1673;agent0;14.97655;0;83.75695;Goal1;cell14-82
1674;agent0;14.48906;0;83.80681;Goal1;cell14-82
1675;agent0;13.97472;0;83.83246;Goal1;cell14-82
1676;agent0;13.60348;0;83.79959;Goal1;cell12-82
1677;agent0;13.12522;0;83.8703;Goal1;cell12-82
1678;agent0;12.71976;0;84.09315;Goal1;cell12-82
1679;agent0;12.36609;0;84.36333;Goal1;cell12-84
1680;agent0;11.94989;0;84.59852;Goal1;cell12-84
1681;agent0;11.43507;0;84.7794;Goal1;cell10-84
1682;agent0;11.01597;0;85.06355;Goal1;cell10-84
1683;agent0;10.59111;0;85.23576;Goal1;cell10-84
1684;agent0;10.11938;0;85.30711;Goal1;cell10-84
1685;agent0;9.69851;0;85.39404;Goal1;cell10-84
