#
## Alias OBJ Material File
# Exported from SketchUp, (c) 2000-2012 Trimble Navigation Limited

newmtl _Charcoal_
Ka 0.000000 0.000000 0.000000
Kd 0.137255 0.137255 0.137255
Ks 0.330000 0.330000 0.330000

newmtl FrontColor
Ka 0.000000 0.000000 0.000000
Kd 1.000000 1.000000 1.000000
Ks 0.330000 0.330000 0.330000

newmtl _LightGray_1
Ka 0.000000 0.000000 0.000000
Kd 0.568627 0.549020 0.145098
Ks 0.330000 0.330000 0.330000
map_Kd Venice-MODIFIED/_LightGray_1.bmp

newmtl _LightGray_7
Ka 0.000000 0.000000 0.000000
Kd 0.023529 0.568627 0.094118
Ks 0.330000 0.330000 0.330000
map_Kd Venice-MODIFIED/_LightGray_7.bmp

newmtl _CorrogateShiny_1
Ka 0.000000 0.000000 0.000000
Kd 0.756863 0.756863 0.756863
Ks 0.330000 0.330000 0.330000
map_Kd Venice-MODIFIED/_CorrogateShiny_1.jpg

newmtl _CorrogateShiny_3
Ka 0.000000 0.000000 0.000000
Kd 0.980392 0.498039 0.498039
Ks 0.330000 0.330000 0.330000
map_Kd Venice-MODIFIED/_CorrogateShiny_3.bmp

newmtl _Siding2_
Ka 0.000000 0.000000 0.000000
Kd 0.811765 0.811765 0.811765
Ks 0.330000 0.330000 0.330000
map_Kd Venice-MODIFIED/_Siding2_.jpg

newmtl _White_
Ka 0.000000 0.000000 0.000000
Kd 1.000000 1.000000 1.000000
Ks 0.330000 0.330000 0.330000

newmtl _Crimson_
Ka 0.000000 0.000000 0.000000
Kd 0.862745 0.078431 0.235294
Ks 0.330000 0.330000 0.330000

newmtl _Beige_2
Ka 0.000000 0.000000 0.000000
Kd 0.925490 0.866667 0.568627
Ks 0.330000 0.330000 0.330000

newmtl _Buff_
Ka 0.000000 0.000000 0.000000
Kd 0.968627 0.917647 0.745098
Ks 0.330000 0.330000 0.330000

newmtl _Light_Oliv_
Ka 0.000000 0.000000 0.000000
Kd 0.662745 0.729412 0.392157
Ks 0.330000 0.330000 0.330000

newmtl _RoyalBlue_
Ka 0.000000 0.000000 0.000000
Kd 0.254902 0.411765 0.882353
Ks 0.330000 0.330000 0.330000

newmtl _Gray_
Ka 0.000000 0.000000 0.000000
Kd 0.501961 0.501961 0.501961
Ks 0.330000 0.330000 0.330000

newmtl _Carpet_Forest_
Ka 0.000000 0.000000 0.000000
Kd 0.345098 0.392157 0.341176
Ks 0.330000 0.330000 0.330000
map_Kd Venice-MODIFIED/_Carpet_Forest_.jpg

newmtl _Cobalt_
Ka 0.000000 0.000000 0.000000
Kd 0.235294 0.407843 0.556863
Ks 0.330000 0.330000 0.330000

newmtl _WhiteSmoke_
Ka 0.000000 0.000000 0.000000
Kd 0.960784 0.960784 0.960784
Ks 0.330000 0.330000 0.330000

newmtl _Gray_Glass_
Ka 0.000000 0.000000 0.000000
Kd 0.156863 0.156863 0.156863
Ks 0.330000 0.330000 0.330000
d 0.800000

newmtl _Green_1
Ka 0.000000 0.000000 0.000000
Kd 0.000000 0.501961 0.000000
Ks 0.330000 0.330000 0.330000

newmtl Material27
Ka 0.000000 0.000000 0.000000
Kd 1.000000 1.000000 1.000000
Ks 0.330000 0.330000 0.330000
map_Kd Venice-MODIFIED/Material27.bmp

newmtl _Concrete_2
Ka 0.000000 0.000000 0.000000
Kd 0.654902 0.654902 0.654902
Ks 0.330000 0.330000 0.330000
map_Kd Venice-MODIFIED/_Concrete_2.jpg

newmtl _MediumAquamarine_
Ka 0.000000 0.000000 0.000000
Kd 0.400000 0.803922 0.666667
Ks 0.330000 0.330000 0.330000

newmtl _LightGray_2
Ka 0.000000 0.000000 0.000000
Kd 0.878431 0.556863 0.494118
Ks 0.330000 0.330000 0.330000
map_Kd Venice-MODIFIED/_LightGray_2.bmp

newmtl _BurlyWood_2
Ka 0.000000 0.000000 0.000000
Kd 0.588235 0.486275 0.356863
Ks 0.330000 0.330000 0.330000

newmtl _LightGray_3
Ka 0.000000 0.000000 0.000000
Kd 1.000000 0.631373 0.560784
Ks 0.330000 0.330000 0.330000
map_Kd Venice-MODIFIED/_LightGray_3.bmp

newmtl _Grid_
Ka 0.000000 0.000000 0.000000
Kd 0.768627 0.768627 0.768627
Ks 0.330000 0.330000 0.330000
map_Kd Venice-MODIFIED/_Grid_.jpg

newmtl _Pool_Water_7
Ka 0.000000 0.000000 0.000000
Kd 0.752941 0.949020 0.949020
Ks 0.330000 0.330000 0.330000
d 0.700000
map_Kd Venice-MODIFIED/_Pool_Water_7.jpg

newmtl _Pool_Water_8
Ka 0.000000 0.000000 0.000000
Kd 0.752941 0.949020 0.949020
Ks 0.330000 0.330000 0.330000
d 0.360000
map_Kd Venice-MODIFIED/_Pool_Water_8.jpg

newmtl Material7
Ka 0.000000 0.000000 0.000000
Kd 0.376471 0.376471 0.376471
Ks 0.330000 0.330000 0.330000
map_Kd Venice-MODIFIED/Material7.bmp

newmtl _Grass_3
Ka 0.000000 0.000000 0.000000
Kd 0.411765 0.337255 0.337255
Ks 0.330000 0.330000 0.330000
map_Kd Venice-MODIFIED/_Grass_3.jpg

newmtl Roofing_Tile_Spanish
Ka 0.000000 0.000000 0.000000
Kd 0.619608 0.368627 0.227451
Ks 0.330000 0.330000 0.330000
map_Kd Venice-MODIFIED/Roofing_Tile_Spanish.jpg

newmtl M_0132_LightGray
Ka 0.000000 0.000000 0.000000
Kd 0.662745 0.662745 0.662745
Ks 0.330000 0.330000 0.330000

newmtl _13
Ka 0.000000 0.000000 0.000000
Kd 0.666667 0.670588 0.721569
Ks 0.330000 0.330000 0.330000
map_Kd Venice-MODIFIED/_13.bmp

newmtl BeachHotellRed
Ka 0.000000 0.000000 0.000000
Kd 0.533333 0.431373 0.427451
Ks 0.330000 0.330000 0.330000
map_Kd Venice-MODIFIED/BeachHotellRed.tif

newmtl _Concrete_Warm_2
Ka 0.000000 0.000000 0.000000
Kd 0.603922 0.529412 0.431373
Ks 0.330000 0.330000 0.330000
map_Kd Venice-MODIFIED/_Concrete_Warm_2.bmp

newmtl Vegetation_Grass_Pattern
Ka 0.000000 0.000000 0.000000
Kd 0.400000 0.619608 0.298039
Ks 0.330000 0.330000 0.330000
map_Kd Venice-MODIFIED/Vegetation_Grass_Pattern.jpg

newmtl _Concrete_walk_44
Ka 0.000000 0.000000 0.000000
Kd 0.600000 0.576471 0.662745
Ks 0.330000 0.330000 0.330000
map_Kd Venice-MODIFIED/_Concrete_walk_44.jpg

newmtl _16
Ka 0.000000 0.000000 0.000000
Kd 0.466667 0.403922 0.403922
Ks 0.330000 0.330000 0.330000
map_Kd Venice-MODIFIED/_16.jpg

newmtl _Concrete_walk_2
Ka 0.000000 0.000000 0.000000
Kd 0.352941 0.352941 0.352941
Ks 0.330000 0.330000 0.330000
map_Kd Venice-MODIFIED/_Concrete_walk_2.jpg

newmtl _Grass_22
Ka 0.000000 0.000000 0.000000
Kd 0.705882 0.839216 0.831373
Ks 0.330000 0.330000 0.330000
map_Kd Venice-MODIFIED/_Grass_22.bmp

newmtl FactWin
Ka 0.000000 0.000000 0.000000
Kd 0.478431 0.411765 0.384314
Ks 0.330000 0.330000 0.330000
map_Kd Venice-MODIFIED/FactWin.tif

newmtl Roofing_Slate_Gray
Ka 0.000000 0.000000 0.000000
Kd 0.603922 0.662745 0.627451
Ks 0.330000 0.330000 0.330000
map_Kd Venice-MODIFIED/Roofing_Slate_Gray.jpg

newmtl _24
Ka 0.000000 0.000000 0.000000
Kd 0.415686 0.407843 0.380392
Ks 0.330000 0.330000 0.330000
map_Kd Venice-MODIFIED/_24.jpg

newmtl Block01
Ka 0.000000 0.000000 0.000000
Kd 0.462745 0.462745 0.454902
Ks 0.330000 0.330000 0.330000
map_Kd Venice-MODIFIED/Block01.tif

newmtl _Concrete_Warm_11
Ka 0.000000 0.000000 0.000000
Kd 0.713725 0.717647 0.713725
Ks 0.330000 0.330000 0.330000
map_Kd Venice-MODIFIED/_Concrete_Warm_11.bmp

newmtl _Grass_13
Ka 0.000000 0.000000 0.000000
Kd 0.486275 0.415686 0.200000
Ks 0.330000 0.330000 0.330000
map_Kd Venice-MODIFIED/_Grass_13.bmp

newmtl Untitled_3
Ka 0.000000 0.000000 0.000000
Kd 0.560784 0.517647 0.470588
Ks 0.330000 0.330000 0.330000
map_Kd Venice-MODIFIED/Untitled_3.jpg

newmtl Roofing_Shingles_Wood_Dark
Ka 0.000000 0.000000 0.000000
Kd 0.690196 0.588235 0.541176
Ks 0.330000 0.330000 0.330000
map_Kd Venice-MODIFIED/Roofing_Shingles_Wood_Dark.jpg

newmtl _Grass_24
Ka 0.000000 0.000000 0.000000
Kd 0.384314 0.384314 0.384314
Ks 0.330000 0.330000 0.330000
map_Kd Venice-MODIFIED/_Grass_24.bmp

newmtl _15
Ka 0.000000 0.000000 0.000000
Kd 0.580392 0.666667 0.721569
Ks 0.330000 0.330000 0.330000
map_Kd Venice-MODIFIED/_15.jpg

newmtl M_03
Ka 0.000000 0.000000 0.000000
Kd 0.454902 0.341176 0.356863
Ks 0.330000 0.330000 0.330000
map_Kd Venice-MODIFIED/M_03.jpg

newmtl C_ArtDD_wind1_w4_0_h3_5
Ka 0.000000 0.000000 0.000000
Kd 0.568627 0.552941 0.556863
Ks 0.330000 0.330000 0.330000
map_Kd Venice-MODIFIED/C_ArtDD_wind1_w4_0_h3_5.jpg

newmtl _Concrete_rough_1
Ka 0.000000 0.000000 0.000000
Kd 0.482353 0.552941 0.576471
Ks 0.330000 0.330000 0.330000
map_Kd Venice-MODIFIED/_Concrete_rough_1.jpg

newmtl _Grass_28
Ka 0.000000 0.000000 0.000000
Kd 0.729412 0.701961 0.749020
Ks 0.330000 0.330000 0.330000
map_Kd Venice-MODIFIED/_Grass_28.bmp

newmtl _Grass_18
Ka 0.000000 0.000000 0.000000
Kd 0.435294 0.435294 0.435294
Ks 0.330000 0.330000 0.330000
map_Kd Venice-MODIFIED/_Grass_18.bmp

newmtl _Concrete_Warm_12
Ka 0.000000 0.000000 0.000000
Kd 0.545098 0.545098 0.509804
Ks 0.330000 0.330000 0.330000
map_Kd Venice-MODIFIED/_Concrete_Warm_12.bmp

newmtl Brick_Flemish_Stretcher_Dark
Ka 0.000000 0.000000 0.000000
Kd 0.498039 0.498039 0.498039
Ks 0.330000 0.330000 0.330000
map_Kd Venice-MODIFIED/Brick_Flemish_Stretcher_Dark.jpg

newmtl _Grass_12
Ka 0.000000 0.000000 0.000000
Kd 0.513725 0.541176 0.564706
Ks 0.330000 0.330000 0.330000
map_Kd Venice-MODIFIED/_Grass_12.jpg

newmtl C_ArtDA_d_wind1_w4_0_h9_0
Ka 0.000000 0.000000 0.000000
Kd 0.509804 0.478431 0.403922
Ks 0.330000 0.330000 0.330000
map_Kd Venice-MODIFIED/C_ArtDA_d_wind1_w4_0_h9_0.jpg

newmtl _Concrete_Warm_16
Ka 0.000000 0.000000 0.000000
Kd 0.352941 0.352941 0.352941
Ks 0.330000 0.330000 0.330000
map_Kd Venice-MODIFIED/_Concrete_Warm_16.jpg

newmtl M_2storybrikF
Ka 0.000000 0.000000 0.000000
Kd 0.450980 0.407843 0.356863
Ks 0.330000 0.330000 0.330000
map_Kd Venice-MODIFIED/M_2storybrikF.tif

newmtl _Concrete_Warm_17
Ka 0.000000 0.000000 0.000000
Kd 0.666667 0.654902 0.639216
Ks 0.330000 0.330000 0.330000
map_Kd Venice-MODIFIED/_Concrete_Warm_17.bmp

newmtl Untitled_55651
Ka 0.000000 0.000000 0.000000
Kd 0.533333 0.360784 0.376471
Ks 0.330000 0.330000 0.330000
map_Kd Venice-MODIFIED/Untitled_55651.jpg

newmtl C_ArtDC_wind4_w5_0_h4_0
Ka 0.000000 0.000000 0.000000
Kd 0.411765 0.384314 0.337255
Ks 0.330000 0.330000 0.330000
map_Kd Venice-MODIFIED/C_ArtDC_wind4_w5_0_h4_0.jpg

newmtl Block2
Ka 0.000000 0.000000 0.000000
Kd 0.541176 0.517647 0.490196
Ks 0.330000 0.330000 0.330000
map_Kd Venice-MODIFIED/Block2.tif

newmtl _Concrete_walk_41
Ka 0.000000 0.000000 0.000000
Kd 0.592157 0.592157 0.592157
Ks 0.330000 0.330000 0.330000
map_Kd Venice-MODIFIED/_Concrete_walk_41.bmp

newmtl Untitled_2
Ka 0.000000 0.000000 0.000000
Kd 0.611765 0.611765 0.600000
Ks 0.330000 0.330000 0.330000
map_Kd Venice-MODIFIED/Untitled_2.jpg

newmtl hausfront2
Ka 0.000000 0.000000 0.000000
Kd 0.498039 0.498039 0.454902
Ks 0.330000 0.330000 0.330000
map_Kd Venice-MODIFIED/hausfront2.jpg

newmtl _Grass_7
Ka 0.000000 0.000000 0.000000
Kd 0.772549 0.843137 0.815686
Ks 0.330000 0.330000 0.330000
map_Kd Venice-MODIFIED/_Grass_7.jpg

newmtl M_01
Ka 0.000000 0.000000 0.000000
Kd 0.474510 0.521569 0.525490
Ks 0.330000 0.330000 0.330000
map_Kd Venice-MODIFIED/M_01.jpg

newmtl _Concrete_walk_4
Ka 0.000000 0.000000 0.000000
Kd 0.666667 0.666667 0.752941
Ks 0.330000 0.330000 0.330000
map_Kd Venice-MODIFIED/_Concrete_walk_4.bmp

newmtl _9
Ka 0.000000 0.000000 0.000000
Kd 0.650980 0.615686 0.439216
Ks 0.330000 0.330000 0.330000
map_Kd Venice-MODIFIED/_9.jpg

newmtl _Peru_1
Ka 0.000000 0.000000 0.000000
Kd 0.435294 0.435294 0.435294
Ks 0.330000 0.330000 0.330000
map_Kd Venice-MODIFIED/_Peru_1.bmp

